<svg xmlns="http://www.w3.org/2000/svg" width="24" height="24" viewBox="0 0 24 24">
  <g id="folder-icon" transform="translate(-108 -188)">
    <g id="folder">
      <path id="Vector" d="M20,1.63V7.21a5.356,5.356,0,0,1-5.35,5.35H5.35A5.356,5.356,0,0,1,0,7.21V0H19.74a5.019,5.019,0,0,1,.25,1.4A1.77,1.77,0,0,1,20,1.63Z" transform="translate(110 197.44)" fill="#292d32"/>
      <path id="Vector-2" data-name="Vector" d="M19.74,7.44H0V4.42A4.421,4.421,0,0,1,4.42,0H6.75A2.866,2.866,0,0,1,9.54,1.4l1.4,1.86c.31.41.35.47.93.47h2.79A5.322,5.322,0,0,1,19.74,7.44Z" transform="translate(110 190)" fill="#292d32" opacity="0.4"/>
      <path id="Vector-3" data-name="Vector" d="M0,0H24V24H0Z" transform="translate(108 188)" fill="none" opacity="0"/>
    </g>
  </g>
</svg>
