<svg xmlns="http://www.w3.org/2000/svg" width="24" height="24" viewBox="0 0 24 24">
  <g id="receipt-item-icon" transform="translate(-172 -188)">
    <g id="receipt-item">
      <path id="Vector" d="M0,0H24V24H0Z" transform="translate(172 188)" fill="none" opacity="0"/>
      <path id="Vector-2" data-name="Vector" d="M6,4V6.42A2.4,2.4,0,0,1,3.42,9H0V2.01A2.012,2.012,0,0,1,2.02,0,3.995,3.995,0,0,1,6,4Z" transform="translate(188 190)" fill="#292d32"/>
      <path id="Vector-3" data-name="Vector" d="M0,5V19a1,1,0,0,0,1.6.8l1.71-1.28a1.007,1.007,0,0,1,1.32.1l1.66,1.67a1.008,1.008,0,0,0,1.42,0l1.68-1.68a.991.991,0,0,1,1.3-.09L12.4,19.8A1,1,0,0,0,14,19V2a2.006,2.006,0,0,1,2-2H4C1,0,0,1.79,0,4Z" transform="translate(174 190)" fill="#267538"/>
      <g id="Group">
        <path id="Vector-4" data-name="Vector" d="M3.75,0h-3A.755.755,0,0,0,0,.75a.755.755,0,0,0,.75.75h3A.755.755,0,0,0,4.5.75.755.755,0,0,0,3.75,0Z" transform="translate(180.25 200.26)" fill="#d9b929"/>
        <path id="Vector-5" data-name="Vector" d="M.75,1.5h3A.755.755,0,0,0,4.5.75.755.755,0,0,0,3.75,0h-3A.755.755,0,0,0,0,.75.755.755,0,0,0,.75,1.5Z" transform="translate(180.25 196.26)" fill="#d9b929"/>
        <path id="Vector-6" data-name="Vector" d="M1,0A1,1,0,1,0,2,1,1,1,0,0,0,1,0Z" transform="translate(176.97 196.01)" fill="#d9b929"/>
        <path id="Vector-7" data-name="Vector" d="M1,0A1,1,0,1,0,2,1,1,1,0,0,0,1,0Z" transform="translate(176.97 200.01)" fill="#d9b929"/>
      </g>
    </g>
  </g>
</svg>
