<svg xmlns="http://www.w3.org/2000/svg" width="24" height="24" viewBox="0 0 24 24">
  <g id="activity-icon" transform="translate(-364 -188)">
    <g id="activity">
      <path id="Vector" d="M7,20h6c5,0,7-2,7-7V7c0-5-2-7-7-7H7C2,0,0,2,0,7v6C0,18,2,20,7,20Z" transform="translate(366 190)" fill="none" stroke="#377c2c" stroke-linecap="round" stroke-linejoin="round" stroke-width="1.5"/>
      <path id="Vector-2" data-name="Vector" d="M0,4.98,2.38,1.89a1,1,0,0,1,1.41-.18L5.62,3.15a1.011,1.011,0,0,0,1.41-.17L9.34,0" transform="translate(371.33 197.51)" fill="none" stroke="#377c2c" stroke-linecap="round" stroke-linejoin="round" stroke-width="1.5"/>
      <path id="Vector-3" data-name="Vector" d="M0,0H24V24H0Z" transform="translate(364 188)" fill="none" opacity="0"/>
    </g>
  </g>
</svg>
