<svg id="arrow-top-icon" xmlns="http://www.w3.org/2000/svg" width="24.823" height="24.823" viewBox="0 0 24.823 24.823">
  <g id="arrow-top-icon-2" data-name="arrow-top-icon" transform="matrix(-0.999, 0.035, -0.035, -0.999, 24.823, 23.985)" opacity="0.3">
    <g id="arrow-down">
      <path id="Vector" d="M15.84,0,9.32,6.52a1.986,1.986,0,0,1-2.8,0L0,0" transform="translate(4.08 8.95)" fill="none" stroke="#292d32" stroke-linecap="round" stroke-linejoin="round" stroke-width="1.5"/>
      <path id="Vector-2" data-name="Vector" d="M0,0H24V24H0Z" transform="translate(24 24) rotate(180)" fill="none" opacity="0"/>
    </g>
  </g>
</svg>
