<svg id="arrow-right" xmlns="http://www.w3.org/2000/svg" width="21.455" height="20" viewBox="0 0 21.455 20">
  <path id="Vector" d="M0,11.84,6.52,6.966a1.237,1.237,0,0,0,0-2.093L0,0" transform="translate(7.568 4.08)" fill="none" stroke="#000" stroke-linecap="round" stroke-linejoin="round" stroke-width="1.5"/>
  <path id="Vector-2" data-name="Vector" d="M0,0H21.455V20H0Z" transform="translate(21.455 20) rotate(180)" fill="none" opacity="0"/>
</svg>
