<svg version="1.0" xmlns="http://www.w3.org/2000/svg" width="512.000000pt" height="512.000000pt" viewBox="0 0 512.000000 512.000000" preserveAspectRatio="xMidYMid meet">

<g transform="translate(0.000000,512.000000) scale(0.100000,-0.100000)" fill="rgba(128, 128, 128, 0.705)" stroke="none">
<path d="M1045 4992 c-120 -41 -205 -117 -258 -230 l-32 -67 0 -2136 0 -2135 37 -75 c46 -93 112 -158 206 -202 l67 -32 1495 0 1495 0 67 32 c94 44 160 109 206 202 l37 75 3 1730 2 1731 -562 562 -563 563 -1075 0 c-993 -1 -1079 -2 -1125 -18z m2045 -678 c0 -422 2 -490 16 -519 31 -65 28 -65 568 -65 l486 0 -2 -1633 -3 -1633 -28 -42 c-15 -23 -46 -54 -69 -69 l-42 -28 -1456 0 -1456 0 -42 28 c-23 15 -54 46 -69 69 l-28 42 -3 2074 c-1 1452 1 2086 9 2114 13 49 84 123 131 137 20 5 420 10 1011 10 l977 1 0 -486z m570 -19 l345 -345 -348 0 -347 0 0 345 c0 190 1 345 3 345 1 0 157 -155 347 -345z"/>
<path d="M1544 2861 c-36 -22 -58 -75 -48 -115 3 -14 20 -37 36 -51 l30 -25 998 0 998 0 30 25 c38 32 48 72 28 118 -29 71 34 67 -1058 67 -952 0 -984 -1 -1014 -19z"/>
<path d="M1553 2014 c-29 -15 -63 -65 -63 -94 0 -7 7 -27 16 -45 32 -68 -24 -65 1054 -65 1078 0 1022 -3 1054 65 9 18 16 38 16 45 0 7 -7 27 -16 45 -32 68 24 65 -1056 65 -863 0 -977 -2 -1005 -16z"/>
<path d="M1532 1145 c-38 -32 -48 -72 -28 -118 29 -71 -34 -67 1056 -67 1090 0 1027 -4 1056 67 20 46 10 86 -28 118 l-30 25 -998 0 -998 0 -30 -25z"/>
</g>
</svg>
