<svg xmlns="http://www.w3.org/2000/svg" xmlns:xlink="http://www.w3.org/1999/xlink" width="140" height="150" viewBox="0 0 140 150">
  <defs>
    <clipPath id="clip-path">
      <rect id="Mask" width="140" height="150" fill="#fff"/>
    </clipPath>
  </defs>
  <g id="icon" clip-path="url(#clip-path)">
    <g id="icon-2" data-name="icon" transform="translate(8.203 20.289)">
      <g id="money-bag" transform="translate(0 7)">
        <path id="Tracé_2236" data-name="Tracé 2236" d="M284.3,282.735s6.137-6.544,14.285-4.672,9.943,13.9,18.537,16.818,19.276-2.546,26.176,2.164,5.335,16.462,8.377,18.41-27.755,2.954-27.755,2.954-35.216-26.571-39.328-34.744" transform="translate(-240.883 -277.726)" fill="#ffc727"/>
        <path id="Tracé_2237" data-name="Tracé 2237" d="M284.3,282.735s6.137-6.544,14.285-4.672,9.943,13.9,18.537,16.818,19.276-2.546,26.176,2.164,5.335,16.462,8.377,18.41-27.755,2.954-27.755,2.954-35.216-26.571-39.328-34.744" transform="translate(-240.883 -277.726)" opacity="0.2"/>
        <path id="Tracé_2238" data-name="Tracé 2238" d="M382.984,422.635c-3.17,2.394-18.524-2.674-22.573-2.012s-23.159,8.5-44.56,9.778-33.9-6.2-37.291-6.913-17.111,2.635-21.058-.573,2.928-16.347,2.928-16.347a27.029,27.029,0,0,1-4.7-9.561c-1.757-5.971-2.546-14.654.713-25.858,6.824-23.057,42.867-37.876,48.851-41.429s11.267-15.8.815-29.715l-.993-1.273c-.675-.942-1.273-1.833-1.859-2.686h0a.762.762,0,0,0-.115-.166c-7.079-10.72-5.5-14.629-5.5-14.629a16.691,16.691,0,0,0,14.96,8.161c10.847,0,25.272-6.124,32.3-2.826s2.024,16.475,3.476,20.231S351.7,310,359.468,308.98s19.619,7.639,9.078,8.3-25.527,4.252-21.771,14.272a13.839,13.839,0,0,0,2.648,4.189h0l.127.14a1.643,1.643,0,0,0,.2.216l.127.153c3.692,4.01,9.663,8.084,15.609,12.732h.064c1.451,1.146,2.9,2.33,4.316,3.578,4.838,4.227,9.23,8.976,11.828,14.59,11.115,24.063-2.9,37.927-1.986,38.577S386.141,420.241,382.984,422.635Z" transform="translate(-254.207 -276.165)" fill="#f9c12c"/>
        <g id="Groupe_249" data-name="Groupe 249" transform="translate(13.989 38.582)" opacity="0.2">
          <path id="Tracé_2239" data-name="Tracé 2239" d="M274.253,381.916a7.522,7.522,0,0,1-3.234-.522,13.312,13.312,0,0,1-2.852-1.515,14.094,14.094,0,0,1-3.437-3.349,10.949,10.949,0,0,1-.828-1.4,11.664,11.664,0,0,1,1.439.726c.471.255.9.535,1.35.815.866.535,1.693,1.12,2.546,1.681l2.47,1.744Z" transform="translate(-263.903 -273.176)"/>
          <path id="Tracé_2240" data-name="Tracé 2240" d="M327.745,379.755l2.648-1.681,2.546-1.6c.866-.522,1.719-1.057,2.623-1.553.458-.242.9-.5,1.388-.726a12.011,12.011,0,0,1,1.477-.649,10.109,10.109,0,0,1-.9,1.362,15.931,15.931,0,0,1-1.082,1.184,14.705,14.705,0,0,1-2.546,1.973,14.22,14.22,0,0,1-2.928,1.35A7.806,7.806,0,0,1,327.745,379.755Z" transform="translate(-235.632 -273.88)"/>
          <path id="Tracé_2241" data-name="Tracé 2241" d="M298.94,315.832a20.653,20.653,0,0,1-3.259,2.992,34.941,34.941,0,0,1-3.667,2.406,34.146,34.146,0,0,1-3.947,1.91,22.614,22.614,0,0,1-4.24,1.273,35.318,35.318,0,0,1,3.565-2.546c1.273-.777,2.457-1.528,3.7-2.228s2.546-1.388,3.819-2.024a39.556,39.556,0,0,1,4.023-1.782Z" transform="translate(-255.08 -299.434)"/>
          <path id="Tracé_2242" data-name="Tracé 2242" d="M299.317,315.9a10.185,10.185,0,0,1-1.069,2.826,14.684,14.684,0,0,1-1.655,2.47,13.355,13.355,0,0,1-2.139,2.1,7.4,7.4,0,0,1-2.737,1.375c.586-.866,1.133-1.642,1.693-2.406s1.146-1.515,1.757-2.253,1.273-1.451,1.91-2.139a15.272,15.272,0,0,1,2.241-1.973Z" transform="translate(-251.586 -299.403)"/>
          <path id="Tracé_2243" data-name="Tracé 2243" d="M309.755,316.688c.535,1.4,1.069,2.725,1.668,4.01a41.572,41.572,0,0,0,4.214,7.3c.789,1.184,1.732,2.253,2.61,3.488a13.191,13.191,0,0,1-3.718-2.546,15.152,15.152,0,0,1-2.788-3.565,15.724,15.724,0,0,1-1.693-4.214,11.827,11.827,0,0,1-.293-4.469Z" transform="translate(-243.64 -299.055)"/>
          <path id="Tracé_2244" data-name="Tracé 2244" d="M325.93,327.779a11.275,11.275,0,0,1-3.056-1.464,16.661,16.661,0,0,1-2.623-2.1,14.663,14.663,0,0,1-2.113-2.635,8.912,8.912,0,0,1-1.273-3.2c.866.789,1.617,1.541,2.393,2.279s1.528,1.477,2.279,2.228,1.515,1.515,2.241,2.317A23.778,23.778,0,0,1,325.93,327.779Z" transform="translate(-240.45 -298.305)"/>
          <path id="Tracé_2245" data-name="Tracé 2245" d="M314.085,318.806c.98,1.273,1.884,2.47,2.8,3.679l2.725,3.628,2.763,3.59c.917,1.273,1.884,2.393,2.776,3.718a18.6,18.6,0,0,1-3.819-2.724,25.542,25.542,0,0,1-5.653-7.448A17.083,17.083,0,0,1,314.085,318.806Z" transform="translate(-241.681 -298.117)"/>
          <path id="Tracé_2246" data-name="Tracé 2246" d="M311.006,314.859a16.555,16.555,0,0,1,2.241-2.979,22.534,22.534,0,0,1,2.763-2.546,19.016,19.016,0,0,1,3.2-1.961,10.939,10.939,0,0,1,3.6-1.044c-1.095.611-2.126,1.273-3.132,1.884a35.279,35.279,0,0,0-2.916,2.113C314.838,311.8,312.979,313.357,311.006,314.859Z" transform="translate(-243.045 -303.643)"/>
          <path id="Tracé_2247" data-name="Tracé 2247" d="M302.383,314.194a21.787,21.787,0,0,0-1.451-5.093,20.976,20.976,0,0,0-1.171-2.33c-.433-.764-.942-1.49-1.426-2.3a7.512,7.512,0,0,1,2.215,1.744,8.734,8.734,0,0,1,1.515,2.406,8.3,8.3,0,0,1,.675,2.763,6.174,6.174,0,0,1-.357,2.814Z" transform="translate(-248.656 -304.467)"/>
          <path id="Tracé_2248" data-name="Tracé 2248" d="M304.518,314.191a34.389,34.389,0,0,1-1.069-3.539l-.5-1.706c-.178-.573-.395-1.12-.611-1.77a3.921,3.921,0,0,1,1.477,1.337,6.452,6.452,0,0,1,.828,1.808,7.7,7.7,0,0,1,.242,1.948A5.322,5.322,0,0,1,304.518,314.191Z" transform="translate(-246.882 -303.267)"/>
        </g>
        <path id="Tracé_2249" data-name="Tracé 2249" d="M287.6,315.059c3.272,3.03,7.715,4.927,11.866,6.366,11.764,4.036,24.521,4.023,36.743,2.712,4.443-.471,2.75-7.244-1.668-6.773-10.962,1.184-22.509,1.006-33.1-2.61a33.564,33.564,0,0,1-6.939-3.183c-.637-.395-1.273-.84-1.859-1.273s.586.56,0,0c-3.272-3.03-8.352,1.731-5.093,4.8Z" transform="translate(-239.908 -263.733)" fill="#455a64"/>
        <path id="Tracé_2250" data-name="Tracé 2250" d="M290.626,312.029a28.353,28.353,0,0,0,9.905,5.436c9.663,3.463,20.37,3.68,30.416,2.674,4.405-.446,4.647-7.41.191-6.964-9.345.929-19.1.891-28.009-2.19a28.275,28.275,0,0,1-5.844-2.7c-.547-.344-1.069-.713-1.6-1.082s.611.56.064,0c-3.272-3.055-8.339,1.719-5.093,4.8Z" transform="translate(-238.531 -265.108)" fill="#455a64"/>
        <g id="Groupe_250" data-name="Groupe 250" transform="translate(36.511 77.874)" opacity="0.2">
          <path id="Tracé_2251" data-name="Tracé 2251" d="M299.246,331.71a1.592,1.592,0,0,1,1.553,1.566l-.127,2.483a23.376,23.376,0,0,1,11.84,4.965c.586.471.917.853.878,1.477a1.681,1.681,0,0,1-1.846,1.464,1.783,1.783,0,0,1-1.2-.5,20.269,20.269,0,0,0-9.969-4.558l-.891,17.379c10.185,2.546,14.374,6.277,14,12.35-.331,6.582-6.608,10.924-15.1,10.745l-.242,4.838a1.642,1.642,0,0,1-3.259-.166l.255-4.9a26.736,26.736,0,0,1-14.96-6.811,1.6,1.6,0,0,1-.675-1.273,1.681,1.681,0,0,1,1.77-1.464,1.846,1.846,0,0,1,1.209.5,22.917,22.917,0,0,0,12.935,6.366l.9-17.684c-10.071-2.546-14.094-6.2-13.776-12.413s6.531-10.733,14.807-10.491l.127-2.368a1.579,1.579,0,0,1,1.757-1.5Zm-2.7,23.5.866-16.946c-6.582-.2-11.115,3.17-11.344,7.639C285.853,350.12,287.89,352.845,296.547,355.213Zm2.788,3.934-.878,17.137c6.786.216,11.382-3.157,11.624-7.868C310.3,364.137,308.057,361.4,299.335,359.147Z" transform="translate(-279.512 -331.7)"/>
        </g>
      </g>
    </g>
  </g>
</svg>
