<svg xmlns="http://www.w3.org/2000/svg" width="41.457" height="41.457" viewBox="0 0 41.457 41.457">
  <g id="no-access-icon" transform="translate(-748 -636)">
    <g id="group" transform="translate(748 636)">
      <path id="Vector" d="M22.283,0H12.264A6,6,0,0,0,8.6,1.52L1.52,8.6A6,6,0,0,0,0,12.264V22.283a6,6,0,0,0,1.52,3.662L8.6,33.028a6,6,0,0,0,3.662,1.52H22.283a6,6,0,0,0,3.662-1.52l7.082-7.082a6,6,0,0,0,1.52-3.662V12.264A6,6,0,0,0,33.028,8.6L25.945,1.52A6,6,0,0,0,22.283,0Z" transform="translate(3.455 3.455)" fill="none" stroke="#b1b1b1" stroke-linecap="round" stroke-linejoin="round" stroke-width="2.5"/>
      <path id="Vector-2" data-name="Vector" d="M0,24.425,24.425,0" transform="translate(8.533 8.533)" fill="none" stroke="#b1b1b1" stroke-linecap="round" stroke-linejoin="round" stroke-width="2.5"/>
      <path id="Vector-3" data-name="Vector" d="M0,0H41.457V41.457H0Z" fill="none" opacity="0"/>
    </g>
  </g>
</svg>
