<svg xmlns="http://www.w3.org/2000/svg" width="110" height="110" viewBox="0 0 110 110">
  <g id="not-picture-icon" transform="translate(-9.25 -242.484)">
    <rect id="background" width="110" height="110" transform="translate(9.25 242.484)" fill="#e3e3e3"/>
    <g id="gallery-slash" transform="translate(-458.75 14.484)">
      <g id="gallery-slash-2" data-name="gallery-slash" transform="translate(492 252)">
        <path id="Vector" d="M47.688,3.978,3.978,47.688C1.395,45.1,0,41.359,0,36.658V15.009C0,5.606,5.606,0,15.009,0H36.658C41.359,0,45.1,1.395,47.688,3.978Z" transform="translate(5.167 5.167)" fill="#292d32" opacity="0.4"/>
        <path id="Vector-2" data-name="Vector" d="M28.985,6.252V21.984l-4.211-3.617a5.759,5.759,0,0,0-7.285,0L6.743,27.59A5.747,5.747,0,0,1,0,27.977L27.978,0a14.961,14.961,0,0,1,.775,3.126A20.207,20.207,0,0,1,28.985,6.252Z" transform="translate(27.848 13.924)" fill="#292d32" opacity="0.4"/>
        <path id="Vector-3" data-name="Vector" d="M42.909,4.915v5.916c0,9.4-5.606,15.009-15.009,15.009H6.252a20.207,20.207,0,0,1-3.126-.233A14.961,14.961,0,0,1,0,24.832L13.924,10.908a5.747,5.747,0,0,0,6.743-.387L31.413,1.3a5.759,5.759,0,0,1,7.285,0Z" transform="translate(13.924 30.994)" fill="#292d32"/>
        <path id="Vector-4" data-name="Vector" d="M51.06.581a2,2,0,0,0-2.816,0L.581,48.27a2,2,0,0,0,0,2.816,2.043,2.043,0,0,0,1.395.568,1.958,1.958,0,0,0,1.395-.594L51.06,3.371A1.92,1.92,0,0,0,51.06.581Z" transform="translate(5.18 5.18)" fill="#292d32"/>
        <path id="Vector-5" data-name="Vector" d="M12.3,6.148A6.148,6.148,0,1,1,6.148,0,6.148,6.148,0,0,1,12.3,6.148Z" transform="translate(14.518 14.518)" fill="#292d32"/>
        <path id="Vector-6" data-name="Vector" d="M0,0H62V62H0Z" fill="none" opacity="0"/>
      </g>
    </g>
  </g>
</svg>
