<svg id="Operation_Edit_Dark" data-name="Operation Edit Dark" xmlns="http://www.w3.org/2000/svg" width="24" height="24" viewBox="0 0 24 24">
  <g id="card-edit">
    <path id="Vector" d="M20,4.37V5.6H0V4.14A4.144,4.144,0,0,1,4.15,0H14V2.57A1.866,1.866,0,0,0,16.03,4.6h2.94A2.09,2.09,0,0,0,20,4.37Z" transform="translate(2 3.4)" fill="#343434" opacity="0.4"/>
    <path id="Vector-2" data-name="Vector" d="M0,0V7.46A4.144,4.144,0,0,0,4.15,11.6h11.7A4.144,4.144,0,0,0,20,7.46V0ZM6,8.25H4a.75.75,0,0,1,0-1.5H6a.75.75,0,0,1,0,1.5Zm6.5,0h-4a.75.75,0,0,1,0-1.5h4a.75.75,0,0,1,0,1.5Z" transform="translate(2 9)" fill="#343434"/>
    <path id="Vector-3" data-name="Vector" d="M4.97,0H2.03A1.866,1.866,0,0,0,0,2.03V4.97A1.866,1.866,0,0,0,2.03,7H4.97A1.866,1.866,0,0,0,7,4.97V2.03A1.866,1.866,0,0,0,4.97,0ZM3.01,5.57a.263.263,0,0,1-.15.07l-1.04.15a.34.34,0,0,1-.1.01.482.482,0,0,1-.37-.15.528.528,0,0,1-.14-.47l.15-1.04a.348.348,0,0,1,.07-.15l1.7-1.7c.03.07.06.15.09.23s.08.15.12.22a.645.645,0,0,0,.11.16,1.176,1.176,0,0,0,.11.15.274.274,0,0,0,.04.05,1.848,1.848,0,0,0,.28.28c.02.02.04.04.05.04.05.04.11.09.15.12a1.629,1.629,0,0,0,.17.11c.07.04.15.08.23.12a1.357,1.357,0,0,0,.23.09ZM5.4,3.18l-.32.32A.091.091,0,0,1,5,3.54H4.97a2.215,2.215,0,0,1-1.5-1.5.113.113,0,0,1,.03-.11l.33-.33a.978.978,0,0,1,1.58,0,1.138,1.138,0,0,1,.4.79A1.2,1.2,0,0,1,5.4,3.18Z" transform="translate(16 1)" fill="#343434"/>
    <path id="Vector-4" data-name="Vector" d="M0,0H24V24H0Z" fill="none" opacity="0"/>
  </g>
</svg>
