<svg id="wallet-2-icon" xmlns="http://www.w3.org/2000/svg" width="30" height="30" viewBox="0 0 30 30">
  <path id="Path_3460" data-name="Path 3460" d="M0,0H30V30H0Z" fill="none"/>
  <path id="Path_3461" data-name="Path 3461" d="M2,10.5H25.75A1.25,1.25,0,0,1,27,11.75v12.5a1.25,1.25,0,0,1-1.25,1.25H3.25A1.25,1.25,0,0,1,2,24.25ZM3.25,3H22V8H2V4.25A1.25,1.25,0,0,1,3.25,3Zm15,13.75v2.5H22v-2.5Z" transform="translate(0.5 0.75)" fill="#fff"/>
</svg>
