<svg xmlns="http://www.w3.org/2000/svg" width="18" height="20" viewBox="0 0 18 20">
  <path id="pdf-icon" d="M12,16H8V8h4a4,4,0,0,1,0,8Zm-2-6v4h2a2,2,0,0,0,0-4Zm5-6H5V20H19V8H15ZM3,2.992A1,1,0,0,1,4,2H16l5,5V20.993A1,1,0,0,1,20.007,22H3.993A1,1,0,0,1,3,21.008Z" transform="translate(-3 -2)" fill="rgba(4,90,188,0.9)"/>
</svg>
