<svg xmlns="http://www.w3.org/2000/svg" width="245.001" height="182.555" viewBox="0 0 245.001 182.555">
  <g id="branches-img" transform="translate(0 -55)">
    <g id="freepik--background-complete--inject-32" transform="translate(0 55)">
      <rect id="Rectangle_303" data-name="Rectangle 303" width="245.001" height="0.123" transform="translate(0 160.427)" fill="#ebebeb"/>
      <rect id="Rectangle_304" data-name="Rectangle 304" width="16.229" height="0.123" transform="translate(51.225 163.763)" fill="#ebebeb"/>
      <rect id="Rectangle_305" data-name="Rectangle 305" width="19.968" height="0.123" transform="translate(83.859 168.252)" fill="#ebebeb"/>
      <rect id="Rectangle_306" data-name="Rectangle 306" width="25.029" height="0.123" transform="translate(25.705 166.718)" fill="#ebebeb"/>
      <rect id="Rectangle_307" data-name="Rectangle 307" width="45.639" height="0.123" transform="translate(174.813 164.587)" fill="#ebebeb"/>
      <rect id="Rectangle_308" data-name="Rectangle 308" width="3.102" height="0.123" transform="translate(167.35 164.587)" fill="#ebebeb"/>
      <rect id="Rectangle_309" data-name="Rectangle 309" width="20.693" height="0.123" transform="translate(135.833 166.654)" fill="#ebebeb"/>
      <path id="Tracé_2652" data-name="Tracé 2652" d="M135.617,193.572H41a2.8,2.8,0,0,1-2.793-2.8v-133A2.8,2.8,0,0,1,41,55h94.614a2.8,2.8,0,0,1,2.8,2.8h0V190.775A2.8,2.8,0,0,1,135.617,193.572ZM41,55.1a2.675,2.675,0,0,0-2.671,2.675v133A2.675,2.675,0,0,0,41,193.45h94.614a2.685,2.685,0,0,0,2.675-2.675v-133a2.685,2.685,0,0,0-2.675-2.675Z" transform="translate(-19.487 -55)" fill="#ebebeb"/>
      <path id="Tracé_2653" data-name="Tracé 2653" d="M351.917,193.572H257.3a2.808,2.808,0,0,1-2.8-2.8v-133A2.8,2.8,0,0,1,257.3,55h94.619a2.8,2.8,0,0,1,2.788,2.773v133a2.793,2.793,0,0,1-2.788,2.8ZM257.3,55.1a2.685,2.685,0,0,0-2.675,2.675v133a2.685,2.685,0,0,0,2.675,2.675h94.619a2.685,2.685,0,0,0,2.675-2.675v-133a2.685,2.685,0,0,0-2.675-2.675Z" transform="translate(-129.795 -55)" fill="#ebebeb"/>
      <path id="Tracé_2654" data-name="Tracé 2654" d="M70.67,158.037h42.513s-2.288-5.321-9.932-3.665c0,0-1.607-6.052-7.438-5.214,0,0-4.827-5.233-11.868-3.2s-6.434,8.418-6.434,8.418S72.3,153.01,70.67,158.037Z" transform="translate(-36.042 -101.148)" fill="#fafafa"/>
      <path id="Tracé_2655" data-name="Tracé 2655" d="M258.648,91.877H216.14s2.283-5.326,9.927-3.67c0,0,1.607-6.052,7.443-5.214,0,0,4.827-5.228,11.863-3.2s6.439,8.413,6.439,8.413S257.04,86.849,258.648,91.877Z" transform="translate(-110.231 -67.406)" fill="#fafafa"/>
      <path id="Tracé_2656" data-name="Tracé 2656" d="M366.87,91.942h32.521a4.471,4.471,0,0,0-5.949-2.994s.98-6.007-2.489-6.7-4.572,3.876-4.572,3.876a6.444,6.444,0,0,0-6.5-1.96,6.546,6.546,0,0,0-4.7,4.758S369.384,85.6,366.87,91.942Z" transform="translate(-187.103 -68.858)" fill="#fafafa"/>
      <rect id="Rectangle_310" data-name="Rectangle 310" width="39.563" height="78.386" transform="translate(22.52 81.914)" fill="#e6e6e6"/>
      <rect id="Rectangle_311" data-name="Rectangle 311" width="32.37" height="78.386" transform="translate(22.52 81.914)" fill="#f0f0f0"/>
      <rect id="Rectangle_312" data-name="Rectangle 312" width="40.881" height="1.279" transform="translate(21.668 81.914)" fill="#e0e0e0"/>
      <rect id="Rectangle_313" data-name="Rectangle 313" width="40.881" height="1.279" transform="translate(21.668 79.356)" fill="#e0e0e0"/>
      <rect id="Rectangle_314" data-name="Rectangle 314" width="39.171" height="1.279" transform="translate(22.52 80.635)" fill="#f0f0f0"/>
      <rect id="Rectangle_315" data-name="Rectangle 315" width="6.081" height="6.174" transform="translate(25.593 86.524)" fill="#e6e6e6"/>
      <rect id="Rectangle_316" data-name="Rectangle 316" width="5.542" height="6.174" transform="translate(26.127 86.524)" fill="#f5f5f5"/>
      <rect id="Rectangle_317" data-name="Rectangle 317" width="6.081" height="6.174" transform="translate(34.8 86.524)" fill="#e6e6e6"/>
      <rect id="Rectangle_318" data-name="Rectangle 318" width="5.542" height="6.174" transform="translate(35.334 86.524)" fill="#f5f5f5"/>
      <rect id="Rectangle_319" data-name="Rectangle 319" width="6.081" height="6.174" transform="translate(44.007 86.524)" fill="#e6e6e6"/>
      <rect id="Rectangle_320" data-name="Rectangle 320" width="5.542" height="6.174" transform="translate(44.541 86.524)" fill="#f5f5f5"/>
      <rect id="Rectangle_321" data-name="Rectangle 321" width="6.081" height="6.174" transform="translate(25.593 95.614)" fill="#e6e6e6"/>
      <rect id="Rectangle_322" data-name="Rectangle 322" width="5.542" height="6.174" transform="translate(26.127 95.614)" fill="#f5f5f5"/>
      <rect id="Rectangle_323" data-name="Rectangle 323" width="6.081" height="6.174" transform="translate(34.8 95.614)" fill="#e6e6e6"/>
      <rect id="Rectangle_324" data-name="Rectangle 324" width="5.542" height="6.174" transform="translate(35.334 95.614)" fill="#f5f5f5"/>
      <rect id="Rectangle_325" data-name="Rectangle 325" width="6.081" height="6.174" transform="translate(44.007 95.614)" fill="#e6e6e6"/>
      <rect id="Rectangle_326" data-name="Rectangle 326" width="5.542" height="6.174" transform="translate(44.541 95.614)" fill="#f5f5f5"/>
      <rect id="Rectangle_327" data-name="Rectangle 327" width="6.081" height="6.174" transform="translate(25.593 112.259)" fill="#e6e6e6"/>
      <rect id="Rectangle_328" data-name="Rectangle 328" width="5.542" height="6.174" transform="translate(26.127 112.259)" fill="#f5f5f5"/>
      <rect id="Rectangle_329" data-name="Rectangle 329" width="6.081" height="6.174" transform="translate(34.8 112.259)" fill="#e6e6e6"/>
      <rect id="Rectangle_330" data-name="Rectangle 330" width="5.542" height="6.174" transform="translate(35.334 112.259)" fill="#f5f5f5"/>
      <rect id="Rectangle_331" data-name="Rectangle 331" width="6.081" height="6.174" transform="translate(44.007 112.259)" fill="#e6e6e6"/>
      <rect id="Rectangle_332" data-name="Rectangle 332" width="5.542" height="6.174" transform="translate(44.541 112.259)" fill="#f5f5f5"/>
      <rect id="Rectangle_333" data-name="Rectangle 333" width="6.081" height="6.174" transform="translate(25.593 121.349)" fill="#e6e6e6"/>
      <rect id="Rectangle_334" data-name="Rectangle 334" width="5.542" height="6.174" transform="translate(26.127 121.349)" fill="#f5f5f5"/>
      <rect id="Rectangle_335" data-name="Rectangle 335" width="6.081" height="6.174" transform="translate(34.8 121.349)" fill="#e6e6e6"/>
      <rect id="Rectangle_336" data-name="Rectangle 336" width="5.542" height="6.174" transform="translate(35.334 121.349)" fill="#f5f5f5"/>
      <rect id="Rectangle_337" data-name="Rectangle 337" width="6.081" height="6.174" transform="translate(44.007 121.349)" fill="#e6e6e6"/>
      <rect id="Rectangle_338" data-name="Rectangle 338" width="5.542" height="6.174" transform="translate(44.541 121.349)" fill="#f5f5f5"/>
      <rect id="Rectangle_339" data-name="Rectangle 339" width="6.081" height="6.174" transform="translate(25.593 139.846)" fill="#e6e6e6"/>
      <rect id="Rectangle_340" data-name="Rectangle 340" width="5.542" height="6.174" transform="translate(26.127 139.846)" fill="#f5f5f5"/>
      <rect id="Rectangle_341" data-name="Rectangle 341" width="6.081" height="6.174" transform="translate(34.8 139.846)" fill="#e6e6e6"/>
      <rect id="Rectangle_342" data-name="Rectangle 342" width="5.542" height="6.174" transform="translate(35.334 139.846)" fill="#f5f5f5"/>
      <rect id="Rectangle_343" data-name="Rectangle 343" width="6.081" height="6.174" transform="translate(44.007 139.846)" fill="#e6e6e6"/>
      <rect id="Rectangle_344" data-name="Rectangle 344" width="5.542" height="6.174" transform="translate(44.541 139.846)" fill="#f5f5f5"/>
      <rect id="Rectangle_345" data-name="Rectangle 345" width="6.081" height="6.174" transform="translate(25.593 148.936)" fill="#e6e6e6"/>
      <rect id="Rectangle_346" data-name="Rectangle 346" width="5.542" height="6.174" transform="translate(26.127 148.936)" fill="#f5f5f5"/>
      <rect id="Rectangle_347" data-name="Rectangle 347" width="6.081" height="6.174" transform="translate(34.8 148.936)" fill="#e6e6e6"/>
      <rect id="Rectangle_348" data-name="Rectangle 348" width="5.542" height="6.174" transform="translate(35.334 148.936)" fill="#f5f5f5"/>
      <rect id="Rectangle_349" data-name="Rectangle 349" width="6.081" height="6.174" transform="translate(44.007 148.936)" fill="#e6e6e6"/>
      <rect id="Rectangle_350" data-name="Rectangle 350" width="5.542" height="6.174" transform="translate(44.541 148.936)" fill="#f5f5f5"/>
      <rect id="Rectangle_351" data-name="Rectangle 351" width="39.563" height="0.573" transform="translate(22.52 106.129)" fill="#e0e0e0"/>
      <rect id="Rectangle_352" data-name="Rectangle 352" width="39.563" height="0.573" transform="translate(22.52 134.579)" fill="#e0e0e0"/>
      <rect id="Rectangle_353" data-name="Rectangle 353" width="39.087" height="95.114" transform="translate(178.571 65.739)" fill="#e0e0e0"/>
      <rect id="Rectangle_354" data-name="Rectangle 354" width="27.955" height="95.114" transform="translate(178.571 65.739)" fill="#f0f0f0"/>
      <rect id="Rectangle_355" data-name="Rectangle 355" width="10.403" height="5.052" transform="translate(181.453 73.554)" fill="#e6e6e6"/>
      <rect id="Rectangle_356" data-name="Rectangle 356" width="9.712" height="5.052" transform="translate(182.143 73.554)" fill="#f5f5f5"/>
      <rect id="Rectangle_357" data-name="Rectangle 357" width="10.403" height="5.052" transform="translate(193.487 73.554)" fill="#e6e6e6"/>
      <rect id="Rectangle_358" data-name="Rectangle 358" width="9.712" height="5.052" transform="translate(194.178 73.554)" fill="#f5f5f5"/>
      <rect id="Rectangle_359" data-name="Rectangle 359" width="10.403" height="5.052" transform="translate(181.453 83.06)" fill="#e6e6e6"/>
      <rect id="Rectangle_360" data-name="Rectangle 360" width="9.712" height="5.052" transform="translate(182.143 83.06)" fill="#f5f5f5"/>
      <rect id="Rectangle_361" data-name="Rectangle 361" width="10.403" height="5.052" transform="translate(193.487 83.06)" fill="#e6e6e6"/>
      <rect id="Rectangle_362" data-name="Rectangle 362" width="9.712" height="5.052" transform="translate(194.178 83.06)" fill="#f5f5f5"/>
      <rect id="Rectangle_363" data-name="Rectangle 363" width="10.403" height="5.052" transform="translate(181.453 95.207)" fill="#e6e6e6"/>
      <rect id="Rectangle_364" data-name="Rectangle 364" width="9.712" height="5.052" transform="translate(182.143 95.207)" fill="#f5f5f5"/>
      <rect id="Rectangle_365" data-name="Rectangle 365" width="10.403" height="5.052" transform="translate(193.487 95.207)" fill="#e6e6e6"/>
      <rect id="Rectangle_366" data-name="Rectangle 366" width="9.712" height="5.052" transform="translate(194.178 95.207)" fill="#f5f5f5"/>
      <rect id="Rectangle_367" data-name="Rectangle 367" width="10.403" height="5.052" transform="translate(181.453 102.19)" fill="#e6e6e6"/>
      <rect id="Rectangle_368" data-name="Rectangle 368" width="9.712" height="5.052" transform="translate(182.143 102.19)" fill="#f5f5f5"/>
      <rect id="Rectangle_369" data-name="Rectangle 369" width="10.403" height="5.052" transform="translate(193.487 102.19)" fill="#e6e6e6"/>
      <rect id="Rectangle_370" data-name="Rectangle 370" width="9.712" height="5.052" transform="translate(194.178 102.19)" fill="#f5f5f5"/>
      <rect id="Rectangle_371" data-name="Rectangle 371" width="10.403" height="5.052" transform="translate(181.453 113.661)" fill="#e6e6e6"/>
      <rect id="Rectangle_372" data-name="Rectangle 372" width="9.712" height="5.052" transform="translate(182.143 113.661)" fill="#f5f5f5"/>
      <rect id="Rectangle_373" data-name="Rectangle 373" width="10.403" height="5.052" transform="translate(193.487 113.661)" fill="#e6e6e6"/>
      <rect id="Rectangle_374" data-name="Rectangle 374" width="9.712" height="5.052" transform="translate(194.178 113.661)" fill="#f5f5f5"/>
      <rect id="Rectangle_375" data-name="Rectangle 375" width="10.403" height="5.052" transform="translate(181.453 120.638)" fill="#e6e6e6"/>
      <rect id="Rectangle_376" data-name="Rectangle 376" width="9.712" height="5.052" transform="translate(182.143 120.638)" fill="#f5f5f5"/>
      <rect id="Rectangle_377" data-name="Rectangle 377" width="10.403" height="5.052" transform="translate(193.487 120.638)" fill="#e6e6e6"/>
      <rect id="Rectangle_378" data-name="Rectangle 378" width="9.712" height="5.052" transform="translate(194.178 120.638)" fill="#f5f5f5"/>
      <rect id="Rectangle_379" data-name="Rectangle 379" width="10.403" height="5.052" transform="translate(181.453 133.124)" fill="#e6e6e6"/>
      <rect id="Rectangle_380" data-name="Rectangle 380" width="9.712" height="5.052" transform="translate(182.143 133.124)" fill="#f5f5f5"/>
      <rect id="Rectangle_381" data-name="Rectangle 381" width="10.403" height="5.052" transform="translate(193.487 133.124)" fill="#e6e6e6"/>
      <rect id="Rectangle_382" data-name="Rectangle 382" width="9.712" height="5.052" transform="translate(194.178 133.124)" fill="#f5f5f5"/>
      <rect id="Rectangle_383" data-name="Rectangle 383" width="10.403" height="5.052" transform="translate(181.453 142.341)" fill="#e6e6e6"/>
      <rect id="Rectangle_384" data-name="Rectangle 384" width="9.712" height="5.052" transform="translate(182.143 142.341)" fill="#f5f5f5"/>
      <rect id="Rectangle_385" data-name="Rectangle 385" width="10.403" height="5.052" transform="translate(193.487 142.341)" fill="#e6e6e6"/>
      <rect id="Rectangle_386" data-name="Rectangle 386" width="9.712" height="5.052" transform="translate(194.178 142.341)" fill="#f5f5f5"/>
      <rect id="Rectangle_387" data-name="Rectangle 387" width="39.087" height="0.867" transform="translate(178.571 91.224)" opacity="0.05"/>
      <rect id="Rectangle_388" data-name="Rectangle 388" width="39.087" height="0.867" transform="translate(178.571 110.015)" opacity="0.05"/>
      <rect id="Rectangle_389" data-name="Rectangle 389" width="39.087" height="0.867" transform="translate(178.571 128.973)" opacity="0.05"/>
      <rect id="Rectangle_390" data-name="Rectangle 390" width="40.93" height="3.038" transform="translate(176.729 62.926)" fill="#e0e0e0"/>
      <rect id="Rectangle_391" data-name="Rectangle 391" width="9.354" height="3.038" transform="translate(208.305 62.926)" opacity="0.05"/>
      <rect id="Rectangle_392" data-name="Rectangle 392" width="44.188" height="114.847" transform="translate(78.714 44.384)" fill="#e6e6e6"/>
      <rect id="Rectangle_393" data-name="Rectangle 393" width="44.193" height="114.847" transform="translate(62.358 44.384)" fill="#f0f0f0"/>
      <rect id="Rectangle_394" data-name="Rectangle 394" width="36.481" height="5.851" transform="translate(66.214 52.18)" fill="#e6e6e6"/>
      <rect id="Rectangle_395" data-name="Rectangle 395" width="35.065" height="5.851" transform="translate(67.63 52.18)" fill="#f5f5f5"/>
      <rect id="Rectangle_396" data-name="Rectangle 396" width="36.481" height="5.851" transform="translate(66.214 62.029)" fill="#e6e6e6"/>
      <rect id="Rectangle_397" data-name="Rectangle 397" width="35.065" height="5.851" transform="translate(67.63 62.029)" fill="#f5f5f5"/>
      <rect id="Rectangle_398" data-name="Rectangle 398" width="36.481" height="5.851" transform="translate(66.214 72.261)" fill="#e6e6e6"/>
      <rect id="Rectangle_399" data-name="Rectangle 399" width="35.065" height="5.851" transform="translate(67.63 72.261)" fill="#f5f5f5"/>
      <rect id="Rectangle_400" data-name="Rectangle 400" width="36.481" height="5.851" transform="translate(66.214 82.497)" fill="#e6e6e6"/>
      <rect id="Rectangle_401" data-name="Rectangle 401" width="35.065" height="5.851" transform="translate(67.63 82.497)" fill="#f5f5f5"/>
      <rect id="Rectangle_402" data-name="Rectangle 402" width="36.481" height="5.851" transform="translate(66.214 92.728)" fill="#e6e6e6"/>
      <rect id="Rectangle_403" data-name="Rectangle 403" width="35.065" height="5.851" transform="translate(67.63 92.728)" fill="#f5f5f5"/>
      <rect id="Rectangle_404" data-name="Rectangle 404" width="36.481" height="5.851" transform="translate(66.214 102.964)" fill="#e6e6e6"/>
      <rect id="Rectangle_405" data-name="Rectangle 405" width="35.065" height="5.851" transform="translate(67.63 102.964)" fill="#f5f5f5"/>
      <rect id="Rectangle_406" data-name="Rectangle 406" width="36.481" height="5.851" transform="translate(66.214 114.244)" fill="#e6e6e6"/>
      <rect id="Rectangle_407" data-name="Rectangle 407" width="35.065" height="5.851" transform="translate(67.63 114.244)" fill="#f5f5f5"/>
      <rect id="Rectangle_408" data-name="Rectangle 408" width="36.481" height="5.851" transform="translate(66.214 125.519)" fill="#e6e6e6"/>
      <rect id="Rectangle_409" data-name="Rectangle 409" width="35.065" height="5.851" transform="translate(67.63 125.519)" fill="#f5f5f5"/>
      <rect id="Rectangle_410" data-name="Rectangle 410" width="36.481" height="5.851" transform="translate(66.214 136.799)" fill="#e6e6e6"/>
      <rect id="Rectangle_411" data-name="Rectangle 411" width="35.065" height="5.851" transform="translate(67.63 136.799)" fill="#f5f5f5"/>
      <rect id="Rectangle_412" data-name="Rectangle 412" width="36.481" height="5.851" transform="translate(66.214 148.079)" fill="#e6e6e6"/>
      <rect id="Rectangle_413" data-name="Rectangle 413" width="35.065" height="5.851" transform="translate(67.63 148.079)" fill="#f5f5f5"/>
      <rect id="Rectangle_414" data-name="Rectangle 414" width="62.946" height="2.803" transform="translate(61.108 43.228)" fill="#f5f5f5"/>
      <rect id="Rectangle_415" data-name="Rectangle 415" width="62.946" height="2.803" transform="translate(61.108 38.171)" fill="#f5f5f5"/>
      <rect id="Rectangle_416" data-name="Rectangle 416" width="59.604" height="2.803" transform="translate(62.358 40.425)" fill="#f0f0f0"/>
      <rect id="Rectangle_417" data-name="Rectangle 417" width="12.314" height="5.851" transform="translate(110.593 52.18)" fill="#e0e0e0"/>
      <rect id="Rectangle_418" data-name="Rectangle 418" width="12.314" height="5.851" transform="translate(110.593 61.809)" fill="#e0e0e0"/>
      <rect id="Rectangle_419" data-name="Rectangle 419" width="12.314" height="5.851" transform="translate(110.593 71.437)" fill="#e0e0e0"/>
      <rect id="Rectangle_420" data-name="Rectangle 420" width="12.314" height="5.851" transform="translate(110.593 82.492)" fill="#e0e0e0"/>
      <rect id="Rectangle_421" data-name="Rectangle 421" width="12.314" height="5.851" transform="translate(110.593 92.728)" fill="#e0e0e0"/>
      <rect id="Rectangle_422" data-name="Rectangle 422" width="12.314" height="5.851" transform="translate(110.593 102.964)" fill="#e0e0e0"/>
      <rect id="Rectangle_423" data-name="Rectangle 423" width="12.314" height="5.851" transform="translate(110.593 114.239)" fill="#e0e0e0"/>
      <rect id="Rectangle_424" data-name="Rectangle 424" width="12.314" height="5.851" transform="translate(110.593 125.519)" fill="#e0e0e0"/>
      <rect id="Rectangle_425" data-name="Rectangle 425" width="12.314" height="5.851" transform="translate(110.593 136.799)" fill="#e0e0e0"/>
      <rect id="Rectangle_426" data-name="Rectangle 426" width="12.314" height="5.851" transform="translate(110.593 148.079)" fill="#e0e0e0"/>
      <rect id="Rectangle_427" data-name="Rectangle 427" width="4.861" height="7.605" transform="translate(174.847 84.52)" fill="#e0e0e0"/>
      <rect id="Rectangle_428" data-name="Rectangle 428" width="4.861" height="7.605" transform="translate(174.847 96.966)" fill="#e0e0e0"/>
      <rect id="Rectangle_429" data-name="Rectangle 429" width="4.861" height="7.605" transform="translate(174.847 109.065)" fill="#e0e0e0"/>
      <rect id="Rectangle_430" data-name="Rectangle 430" width="4.861" height="7.605" transform="translate(174.847 121.854)" fill="#e0e0e0"/>
      <rect id="Rectangle_431" data-name="Rectangle 431" width="4.861" height="7.605" transform="translate(174.847 134.3)" fill="#e0e0e0"/>
      <rect id="Rectangle_432" data-name="Rectangle 432" width="51.151" height="77.793" transform="translate(128.557 76.876)" fill="#e6e6e6"/>
      <rect id="Rectangle_433" data-name="Rectangle 433" width="42.508" height="77.793" transform="translate(128.562 76.876)" fill="#f0f0f0"/>
      <rect id="Rectangle_434" data-name="Rectangle 434" width="34.565" height="7.605" transform="translate(132.384 84.525)" fill="#ebebeb"/>
      <rect id="Rectangle_435" data-name="Rectangle 435" width="34.565" height="7.605" transform="translate(132.384 96.966)" fill="#ebebeb"/>
      <rect id="Rectangle_436" data-name="Rectangle 436" width="34.565" height="7.605" transform="translate(132.384 109.412)" fill="#ebebeb"/>
      <rect id="Rectangle_437" data-name="Rectangle 437" width="34.565" height="7.605" transform="translate(132.384 121.854)" fill="#ebebeb"/>
      <rect id="Rectangle_438" data-name="Rectangle 438" width="34.565" height="7.605" transform="translate(132.384 134.3)" fill="#ebebeb"/>
      <rect id="Rectangle_439" data-name="Rectangle 439" width="33.291" height="7.605" transform="translate(133.658 84.525)" fill="#f5f5f5"/>
      <rect id="Rectangle_440" data-name="Rectangle 440" width="33.291" height="7.605" transform="translate(133.658 96.966)" fill="#f5f5f5"/>
      <rect id="Rectangle_441" data-name="Rectangle 441" width="33.291" height="7.605" transform="translate(133.658 109.412)" fill="#f5f5f5"/>
      <rect id="Rectangle_442" data-name="Rectangle 442" width="33.291" height="7.605" transform="translate(133.658 121.854)" fill="#f5f5f5"/>
      <rect id="Rectangle_443" data-name="Rectangle 443" width="33.291" height="7.605" transform="translate(133.658 134.3)" fill="#f5f5f5"/>
    </g>
    <g id="freepik--Shape--inject-32" transform="translate(27.494 226.461)">
      <ellipse id="freepik--shape--inject-32-2" data-name="freepik--shape--inject-32" cx="95.006" cy="5.547" rx="95.006" ry="5.547" fill="#f5f5f5"/>
    </g>
  </g>
</svg>
