<svg xmlns="http://www.w3.org/2000/svg" width="160.45" height="192.296" viewBox="0 0 160.45 192.296">
  <g id="card-img" transform="translate(-162 -159.379)">
    <g id="freepik--cart--inject-144">
      <path id="Tracé_2846" data-name="Tracé 2846" d="M298.2,308.63a14.86,14.86,0,0,0-6.66-11.7c-1.94-1.14-3.69-1.19-4.93-.38h0l-4.55,2.56,9.55,16.47,4.51-2.56h0C297.38,312.33,298.18,310.82,298.2,308.63Z" fill="#37474f"/>
      <path id="Tracé_2847" data-name="Tracé 2847" d="M286.81,299.61a14.91,14.91,0,0,1,6.66,11.7c0,4.3-3.06,6-6.76,3.85a14.91,14.91,0,0,1-6.66-11.7C280.08,299.16,283.11,297.44,286.81,299.61Z" fill="#455a64"/>
      <path id="Tracé_2848" data-name="Tracé 2848" d="M284.49,306.06c0-1.68,1-2.45,2.29-1.71a5.43,5.43,0,0,1,2.25,4.37c0,1.68-1,2.44-2.29,1.71A5.48,5.48,0,0,1,284.49,306.06Z" fill="#263238"/>
      <path id="Tracé_2849" data-name="Tracé 2849" d="M293.47,311.31a12.35,12.35,0,0,0-.92-4.5L281,300.1a5.78,5.78,0,0,0-.94,3.36v.16l13.4,7.78A.775.775,0,0,0,293.47,311.31Z" opacity="0.15"/>
      <path id="Tracé_2850" data-name="Tracé 2850" d="M250.32,345.22a14.411,14.411,0,0,1-7.12-1.28l-63-36.31c-3.81-1.92-8.09-6.9-8.36-11.62l-1.93-44.91,3.51-.2,1.94,44.92c.18,3.2,3.53,7.22,6.41,8.66l63.05,36.32a12.11,12.11,0,0,0,10.58-.61l42-24.22c1-.66,1.59-1.45,1.55-2.12s-.67-1.33-1.74-1.87L229.72,272.8c-3.8-1.91-8.06-6.9-8.33-11.62l-.94-24.91,3.51-.19.94,24.9c.18,3.22,3.53,7.23,6.4,8.67l67.49,39.19c2.25,1.13,3.55,2.84,3.67,4.81s-1,3.88-3.13,5.26l-42,24.22a14.57,14.57,0,0,1-7.01,2.09Z" fill="#455a64"/>
      <path id="Tracé_2851" data-name="Tracé 2851" d="M239,344.21a14.86,14.86,0,0,0-6.66-11.7c-1.94-1.14-3.69-1.2-4.92-.38h0l-4.56,2.56,9.55,16.47,4.51-2.56h0C238.16,347.91,239,346.4,239,344.21Z" fill="#37474f"/>
      <path id="Tracé_2852" data-name="Tracé 2852" d="M227.59,335.19a14.86,14.86,0,0,1,6.66,11.71c0,4.29-3.05,6-6.76,3.84a14.88,14.88,0,0,1-6.65-11.7C220.87,334.75,223.89,333,227.59,335.19Z" fill="#455a64"/>
      <path id="Tracé_2853" data-name="Tracé 2853" d="M225.27,341.64c0-1.68,1-2.45,2.29-1.71a5.41,5.41,0,0,1,2.25,4.37c0,1.67-1,2.44-2.28,1.7A5.44,5.44,0,0,1,225.27,341.64Z" fill="#263238"/>
      <path id="Tracé_2854" data-name="Tracé 2854" d="M192.42,317.36a14.86,14.86,0,0,0-6.63-11.71c-1.95-1.14-3.69-1.2-4.93-.39h0l-4.56,2.55,9.52,16.49,4.52-2.56h0C191.6,321.06,192.4,319.55,192.42,317.36Z" fill="#37474f"/>
      <path id="Tracé_2855" data-name="Tracé 2855" d="M181.05,308.33A14.88,14.88,0,0,1,187.69,320c0,4.29-3.07,6-6.77,3.83a14.86,14.86,0,0,1-6.63-11.71C174.32,307.86,177.35,306.15,181.05,308.33Z" fill="#455a64"/>
      <path id="Tracé_2856" data-name="Tracé 2856" d="M178.72,314.76c0-1.67,1-2.44,2.29-1.7a5.45,5.45,0,0,1,2.25,4.37c0,1.68-1,2.44-2.3,1.71a5.49,5.49,0,0,1-2.24-4.38Z" fill="#263238"/>
      <path id="Tracé_2857" data-name="Tracé 2857" d="M162.38,196.68a11.71,11.71,0,0,1,4.49-12.46l41.91-23.69c3.81-2.5,8-.76,9.32,3.59l2.91,9.43-2.88,1.68L215,165.7a3.17,3.17,0,0,0-5-1.75L169.19,187a7.69,7.69,0,0,0-2.93,8l2.46,9.05-3.43,2Z" fill="#455a64"/>
      <path id="Tracé_2858" data-name="Tracé 2858" d="M227.18,242.12l-56.3,32.51,82.28,47.5,56.3-32.51Z" fill="#d7d7d7"/>
      <path id="Tracé_2859" data-name="Tracé 2859" d="M227.18,242.12l-56.3,32.51,82.28,47.5,56.3-32.51Z" opacity="0.5"/>
      <path id="Tracé_2860" data-name="Tracé 2860" d="M165.29,206.11l55.72-32.55,6.17,68.56-56.3,32.51Z" fill="#d7d7d7"/>
      <path id="Tracé_2861" data-name="Tracé 2861" d="M165.29,206.11l55.72-32.55,6.17,68.56-56.3,32.51Z" opacity="0.35"/>
      <path id="Tracé_2862" data-name="Tracé 2862" d="M221,173.56l6.17,68.56,82.28,47.5,13-57.51Zm28.77,65.92a4.73,4.73,0,0,1-5.9-3.06l-13.6-35.29A4.44,4.44,0,1,1,238.5,198l13.6,35.29a4.72,4.72,0,0,1-2.32,6.19Zm25.69,12.08a4.71,4.71,0,0,1-5.9-3.05L256,213.22a4.44,4.44,0,1,1,8.22-3.17l13.6,35.29a4.71,4.71,0,0,1-2.35,6.22Zm25.69,12.09a4.71,4.71,0,0,1-5.9-3l-13.59-35.29a4.43,4.43,0,1,1,8.21-3.17l13.6,35.29a4.71,4.71,0,0,1-2.31,6.17Z" fill="#d7d7d7"/>
      <path id="Tracé_2863" data-name="Tracé 2863" d="M221,173.56l6.17,68.56,82.28,47.5,13-57.51Zm28.77,65.92a4.73,4.73,0,0,1-5.9-3.06l-13.6-35.29A4.44,4.44,0,1,1,238.5,198l13.6,35.29a4.72,4.72,0,0,1-2.32,6.19Zm25.69,12.08a4.71,4.71,0,0,1-5.9-3.05L256,213.22a4.44,4.44,0,1,1,8.22-3.17l13.6,35.29a4.71,4.71,0,0,1-2.35,6.22Zm25.69,12.09a4.71,4.71,0,0,1-5.9-3l-13.59-35.29a4.43,4.43,0,1,1,8.21-3.17l13.6,35.29a4.71,4.71,0,0,1-2.31,6.17Z" opacity="0.23"/>
      <path id="Tracé_2864" data-name="Tracé 2864" d="M165.29,206.11l5.59,68.52,82.28,47.5,13-57.5Zm32.48,67.45a4.73,4.73,0,0,1-5.9-3.06l-13.59-35.29a4.43,4.43,0,1,1,8.21-3.16l13.6,35.28a4.72,4.72,0,0,1-2.32,6.23Zm25.69,12.08a4.71,4.71,0,0,1-5.9-3.05L204,247.3a4.44,4.44,0,1,1,8.22-3.17l13.59,35.29a4.71,4.71,0,0,1-2.35,6.22Zm25.69,12.09a4.7,4.7,0,0,1-5.89-3.05l-13.6-35.29a4.44,4.44,0,1,1,8.22-3.17l13.59,35.29a4.71,4.71,0,0,1-2.32,6.22Z" fill="#d7d7d7"/>
      <g id="Groupe_8822" data-name="Groupe 8822" opacity="0.15">
        <path id="Tracé_2865" data-name="Tracé 2865" d="M165.29,206.11l5.59,68.52,82.28,47.5,13-57.5Zm32.48,67.45a4.73,4.73,0,0,1-5.9-3.06l-13.59-35.29a4.43,4.43,0,1,1,8.21-3.16l13.6,35.28a4.72,4.72,0,0,1-2.32,6.23Zm25.69,12.08a4.71,4.71,0,0,1-5.9-3.05L204,247.3a4.44,4.44,0,1,1,8.22-3.17l13.59,35.29a4.71,4.71,0,0,1-2.35,6.22Zm25.69,12.09a4.7,4.7,0,0,1-5.89-3.05l-13.6-35.29a4.44,4.44,0,1,1,8.22-3.17l13.59,35.29a4.71,4.71,0,0,1-2.32,6.22Z"/>
      </g>
      <path id="Tracé_2866" data-name="Tracé 2866" d="M266.15,264.63l56.3-32.51-12.99,57.51-56.3,32.5Z" fill="#d7d7d7"/>
      <path id="Tracé_2867" data-name="Tracé 2867" d="M266.15,264.63l56.3-32.51-12.99,57.51-56.3,32.5Z" opacity="0.4"/>
    </g>
  </g>
</svg>
