<svg xmlns="http://www.w3.org/2000/svg" width="270.523" height="178.048" viewBox="0 0 270.523 178.048">
  <g id="empty-service-no-access" transform="translate(-532.913 -459.999)">
    <g id="empty-service" transform="translate(480.053 415.699)">
      <g id="freepik--background-complete--inject-44" transform="translate(52.86 44.3)">
        <rect id="Rectangle_291" data-name="Rectangle 291" width="55.853" height="77.242" transform="translate(28.456)" fill="#dbdbdb"/>
        <rect id="Rectangle_292" data-name="Rectangle 292" width="23.585" height="33.893" transform="translate(31.5 3.43)" fill="#fff"/>
        <rect id="Rectangle_293" data-name="Rectangle 293" width="23.585" height="33.893" transform="translate(57.679 3.43)" fill="#fff"/>
        <rect id="Rectangle_294" data-name="Rectangle 294" width="23.585" height="33.893" transform="translate(31.5 39.918)" fill="#fff"/>
        <rect id="Rectangle_295" data-name="Rectangle 295" width="23.585" height="33.893" transform="translate(57.679 39.918)" fill="#fff"/>
        <rect id="Rectangle_296" data-name="Rectangle 296" width="55.853" height="77.242" transform="translate(186.214)" fill="#dbdbdb"/>
        <rect id="Rectangle_297" data-name="Rectangle 297" width="23.585" height="33.893" transform="translate(189.259 3.43)" fill="#fff"/>
        <rect id="Rectangle_298" data-name="Rectangle 298" width="23.585" height="33.893" transform="translate(215.438 3.43)" fill="#fff"/>
        <rect id="Rectangle_299" data-name="Rectangle 299" width="23.585" height="33.893" transform="translate(189.259 39.918)" fill="#fff"/>
        <rect id="Rectangle_300" data-name="Rectangle 300" width="23.585" height="33.893" transform="translate(215.438 39.918)" fill="#fff"/>
        <path id="Tracé_2586" data-name="Tracé 2586" d="M67.748,88.147l5.5-.118L76.053,88h3v.189l.025,4.7v.21h-.21l-5.559-.059c-1.852,0-3.708-.046-5.559-.067H67.63v-.113c0-.8.034-1.587.055-2.372Zm0,0,.059,2.372c0,.781.046,1.554.055,2.322l-.113-.113c1.852,0,3.708-.067,5.559-.067l5.559-.042-.21.21v-4.7l.189.189c-.915,0-1.831,0-2.75-.025l-2.763-.046Z" transform="translate(-61.428 -69.651)" fill="#ebebeb"/>
        <path id="Tracé_2587" data-name="Tracé 2587" d="M82.518,74.037l5.513-.1,2.8-.046h2.994v5.1h-.21l-5.559-.025c-1.852,0-3.708-.046-5.559-.067H82.4v-.113c0-.8.034-1.587.055-2.372Zm0,0,.059,2.377c.021.781.046,1.554.055,2.322l-.113-.113c1.852,0,3.708-.067,5.559-.067l5.559-.029-.21.21.025-4.7.185.189c-.915,0-1.831,0-2.746-.025l-2.78-.046Z" transform="translate(-69.997 -61.466)" fill="#ebebeb"/>
        <path id="Tracé_2588" data-name="Tracé 2588" d="M315.678,320.875l5.509-.118,2.8-.046c.936-.021,1.873,0,2.813-.021h.185v.189l.025,4.7v.21h-.21l-5.559-.025c-1.856,0-3.708-.046-5.559-.071h-.118v-.113c0-.8.038-1.591.055-2.372Zm0,0,.059,2.372c0,.785.046,1.558.055,2.326l-.113-.113c1.852-.021,3.7-.067,5.559-.071l5.559-.025-.21.21.021-4.7.189.189c-.92,0-1.831,0-2.75-.025l-2.763-.046Z" transform="translate(-205.256 -204.638)" fill="#ebebeb"/>
        <path id="Tracé_2589" data-name="Tracé 2589" d="M330.448,306.745l5.509-.118,2.8-.046c.936-.021,1.877,0,2.813-.021h.185v.185l.025,4.7v.21h-.21l-5.559-.025c-1.856,0-3.708-.046-5.559-.071h-.118v-.113c0-.8.038-1.591.059-2.372Zm0,0,.059,2.377c0,.781.046,1.554.055,2.322l-.113-.113c1.852-.021,3.7-.067,5.559-.071l5.559-.025-.21.21.021-4.7.189.189c-.915,0-1.831,0-2.75-.025l-2.746-.038Z" transform="translate(-213.825 -196.441)" fill="#ebebeb"/>
        <path id="Tracé_2590" data-name="Tracé 2590" d="M52.978,74.037l5.509-.1,2.8-.046h3v.189l.025,4.7v.21H64.1l-5.559-.025c-1.856,0-3.708-.046-5.559-.067H52.86v-.113c0-.8.038-1.587.055-2.372Zm0,0,.059,2.377c0,.781.046,1.554.055,2.322l-.113-.113c1.852,0,3.7-.067,5.559-.067l5.559-.029-.21.21v-4.7l.189.189c-.915,0-1.831,0-2.75-.025l-2.763-.046Z" transform="translate(-52.86 -61.466)" fill="#ebebeb"/>
        <path id="Tracé_2591" data-name="Tracé 2591" d="M396.008,144.778l-5.509.118-2.8.046c-.936.021-1.877,0-2.813.025h-.185v-.189l-.025-4.7v-.21h.21l5.559.025c1.856,0,3.708.05,5.559.071h.118v.113c0,.8-.038,1.591-.059,2.377Zm0,0-.059-2.372c0-.785-.046-1.558-.055-2.326l.113.113c-1.852.025-3.7.067-5.559.071l-5.559.025.21-.21-.021,4.7-.189-.185h2.75l2.763.046Z" transform="translate(-245.354 -99.742)" fill="#ebebeb"/>
        <path id="Tracé_2592" data-name="Tracé 2592" d="M666.438,330.454l-5.509.113-2.8.05h-3v-.185l-.025-4.7v-.214h.21l5.559.025c1.852,0,3.708.046,5.559.067h.118v.113c0,.794-.034,1.587-.055,2.372Zm0,0-.059-2.377c-.021-.781-.046-1.554-.055-2.322l.113.113c-1.852,0-3.708.067-5.559.067l-5.559.029.21-.21-.021,4.7-.189-.189c.915,0,1.831,0,2.75.021l2.763.05Z" transform="translate(-402.235 -207.44)" fill="#ebebeb"/>
        <path id="Tracé_2593" data-name="Tracé 2593" d="M681.208,344.593l-5.509.113-2.8.05c-.936,0-1.877,0-2.813.021h-.185v-.185l-.025-4.7v-.214h.21l5.559.025c1.856,0,3.708.046,5.559.067h.118v.113c0,.794-.038,1.587-.055,2.372Zm0,0-.059-2.377c0-.781-.046-1.554-.055-2.322l.113.113c-1.852.021-3.7.067-5.559.067l-5.559.025.21-.206v4.7l-.189-.189c.915,0,1.831,0,2.75.021l2.763.05Z" transform="translate(-410.803 -215.655)" fill="#ebebeb"/>
        <path id="Tracé_2594" data-name="Tracé 2594" d="M79,344.593l-5.513.113-2.8.05c-.936,0-1.873,0-2.809.021H67.69v-5.1H67.9l5.559.025c1.852,0,3.7.046,5.559.067h.113v.113c0,.794-.038,1.587-.055,2.372Zm0,0-.063-2.377c0-.781-.046-1.554-.055-2.322l.118.113c-1.856.021-3.708.067-5.559.067l-5.559.025.206-.206v4.7L67.9,344.4c.915,0,1.826,0,2.746.021l2.763.05Z" transform="translate(-61.463 -215.655)" fill="#ebebeb"/>
        <path id="Tracé_2595" data-name="Tracé 2595" d="M655.349,74.037l5.509-.1,2.8-.046h3v.189l.025,4.7v.21h-.2l-5.559-.025c-1.856,0-3.708-.046-5.559-.067h-.118v-.113c0-.8.038-1.587.059-2.372Zm0,0,.059,2.377c0,.781.046,1.554.055,2.322l-.113-.113c1.852,0,3.7-.067,5.559-.067l5.568-.029-.21.21v-4.7l.189.189c-.915,0-1.831,0-2.75-.025l-2.763-.046Z" transform="translate(-402.31 -61.466)" fill="#ebebeb"/>
        <circle id="Ellipse_21" data-name="Ellipse 21" cx="8.587" cy="8.587" r="8.587" transform="translate(97.715 4.606)" fill="#ebebeb" opacity="0.19"/>
        <circle id="Ellipse_22" data-name="Ellipse 22" cx="6.37" cy="6.37" r="6.37" transform="translate(98.629 19.329) rotate(-76.63)" fill="#ebebeb" opacity="0.19"/>
        <path id="Tracé_2596" data-name="Tracé 2596" d="M302.446,79.09,296.513,89.2h-6.886L283.69,79.09Z" transform="translate(-186.768 -64.482)" fill="#ebebeb"/>
        <path id="Tracé_2597" data-name="Tracé 2597" d="M304.107,106.575H294l1.608-3.405h6.886Z" transform="translate(-192.749 -78.451)" fill="#ebebeb"/>
        <path id="Tracé_2598" data-name="Tracé 2598" d="M304.661,98.82l-1.071,1.826H296.7l-.81-1.381Z" transform="translate(-193.846 -75.928)" fill="#c7c7c7"/>
        <circle id="Ellipse_23" data-name="Ellipse 23" cx="8.587" cy="8.587" r="8.587" transform="translate(126.675 4.606)" fill="#ebebeb" opacity="0.19"/>
        <circle id="Ellipse_24" data-name="Ellipse 24" cx="6.37" cy="6.37" r="6.37" transform="translate(126.787 11.569) rotate(-25.22)" fill="#ebebeb" opacity="0.19"/>
        <path id="Tracé_2599" data-name="Tracé 2599" d="M371.422,79.09,365.489,89.2H358.6L352.67,79.09Z" transform="translate(-226.785 -64.482)" fill="#ebebeb"/>
        <path id="Tracé_2600" data-name="Tracé 2600" d="M373.077,106.575H362.97l1.608-3.405h6.886Z" transform="translate(-232.76 -78.451)" fill="#ebebeb"/>
        <path id="Tracé_2601" data-name="Tracé 2601" d="M373.636,98.82l-1.075,1.826h-6.886l-.815-1.381Z" transform="translate(-233.856 -75.928)" fill="#c7c7c7"/>
        <circle id="Ellipse_25" data-name="Ellipse 25" cx="8.587" cy="8.587" r="8.587" transform="translate(155.634 4.606)" fill="#ebebeb" opacity="0.19"/>
        <circle id="Ellipse_26" data-name="Ellipse 26" cx="6.37" cy="6.37" r="6.37" transform="translate(155.213 14.608) rotate(-45)" fill="#ebebeb" opacity="0.19"/>
        <path id="Tracé_2602" data-name="Tracé 2602" d="M440.4,79.09,434.459,89.2h-6.886L421.64,79.09Z" transform="translate(-266.795 -64.482)" fill="#ebebeb"/>
        <path id="Tracé_2603" data-name="Tracé 2603" d="M442.047,106.575H431.94l1.608-3.405h6.886Z" transform="translate(-272.77 -78.451)" fill="#ebebeb"/>
        <path id="Tracé_2604" data-name="Tracé 2604" d="M442.611,98.82l-1.071,1.826h-6.89l-.81-1.381Z" transform="translate(-273.873 -75.928)" fill="#c7c7c7"/>
      </g>
      <g id="freepik--Shadow--inject-44" transform="translate(68.156 199.548)">
        <ellipse id="Ellipse_27" data-name="Ellipse 27" cx="115.67" cy="11.4" rx="115.67" ry="11.4" fill="#ebebeb"/>
      </g>
      <g id="freepik--Floor--inject-44" transform="translate(55.052 181.69)">
        <path id="Tracé_2605" data-name="Tracé 2605" d="M58.08,371.72l33.267-.1,33.267-.038,66.535-.071,66.535.071,33.267.034,33.267.1-33.267.1-33.267.038-66.535.071-66.535-.071-33.267-.038Z" transform="translate(-58.08 -371.51)" fill="#263238"/>
      </g>
      <g id="freepik--Plant--inject-44" transform="translate(279.455 106.443)">
        <path id="Tracé_2606" data-name="Tracé 2606" d="M629.932,231.2a29.44,29.44,0,0,1,.949,5.354c-.05.088-.042.42,0,.332,0,.294.458.239.458-.05v-.563c1.046-1.3,2.566-2.1,3.779-3.25a7.138,7.138,0,0,0,2.078-3.309c1.016-3.51.063-7.23,1.289-10.732,1.054-3.019,2.939-5.643,4.552-8.4a19.988,19.988,0,0,0,3.065-9.321c.1-2.595-.21-6.051-2.183-7.978-2.1-2.062-4.69-.516-6.3,1.323-4.648,5.337-6.8,12.08-7.671,18.975a72.424,72.424,0,0,0-.84,11.509,31.141,31.141,0,0,0,.823,6.109Z" transform="translate(-613.733 -192.301)" fill="#267538"/>
        <path id="Tracé_2607" data-name="Tracé 2607" d="M633.084,250.875a65.926,65.926,0,0,1,.126-10.812v-.042c-.059-2.939-.29-5.832-.176-8.759a52.18,52.18,0,0,1,1.289-9.4.029.029,0,0,1,.055,0,61.3,61.3,0,0,0-1.016,9.187q-.088,2.473.038,4.955c.029.537.08,1.075.113,1.617h0a57.726,57.726,0,0,1,8.679-22.989c.059-.1.227,0,.168.105a60.073,60.073,0,0,0-7.079,17.06c2.238-4.144,5.614-7.558,8.121-11.53,0-.021.05,0,.038,0-2.251,4.434-5.971,7.927-8.339,12.294q-.617,2.67-1,5.383a60.286,60.286,0,0,0-.537,7.478,85.871,85.871,0,0,0,3.888-7.671c.029-.071.134-.025.109.046a29.9,29.9,0,0,1-4.006,8.2c0,1.772.042,3.544.147,5.312.277,4.719,1.083,9.376,1.457,14.083a.11.11,0,0,1-.218.021,108.656,108.656,0,0,1-1.856-14.536Z" transform="translate(-615.957 -205.234)" fill="#263238"/>
        <path id="Tracé_2608" data-name="Tracé 2608" d="M642.349,214.309c0-.034.063,0,.05,0-.84,2.385-1.348,4.8-1.969,7.247a.092.092,0,0,1-.181-.029A26.642,26.642,0,0,1,642.349,214.309Z" transform="translate(-620.209 -205.06)" fill="#263238"/>
        <path id="Tracé_2609" data-name="Tracé 2609" d="M592.764,234.429a36.1,36.1,0,0,0,1.986,4.073c1.549,2.817,3.17,5.4,3.464,8.683a20.025,20.025,0,0,0,.626,4.354,13.017,13.017,0,0,0,1.734,3.409c1.68,2.452,3.779,4.564,5.345,7.1a30.086,30.086,0,0,1,3.552,8.566c.038.164.3.122.256-.042v-.038a.063.063,0,0,0,0-.038,61.434,61.434,0,0,0-2.465-20.877,71.6,71.6,0,0,0-3.409-8.683,20.324,20.324,0,0,0-4.619-6.622c-1.31-1.18-4.153-3.418-6.017-2.234C592.348,232.649,592.411,233.535,592.764,234.429Z" transform="translate(-592.52 -215.186)" fill="#267538"/>
        <path id="Tracé_2610" data-name="Tracé 2610" d="M607.974,258.674a57.959,57.959,0,0,0,4.094,5.878c.68.89,1.373,1.772,2.053,2.662.319.42.68.84.974,1.293-.185-.743-.365-1.482-.554-2.221a86.635,86.635,0,0,0-3.137-10.564,70.93,70.93,0,0,0-4.887-9.582c-.046-.084.084-.143.134-.063,1.486,2.448,3,4.892,4.245,7.47a38.861,38.861,0,0,1,1.806,4.43,68.587,68.587,0,0,0-2.4-9.468c0-.025.029-.046.042-.021a32.289,32.289,0,0,1,2.49,9.85h0q.462,1.365.84,2.767,1.663,5.908,2.985,11.908a42.6,42.6,0,0,0-.705-7.806.046.046,0,1,1,.092,0,24.854,24.854,0,0,1,.68,8.255c.34,1.516.676,3.04,1,4.56.693,3.246,1.541,6.546,1.944,9.842a.066.066,0,0,1-.13.021c-.483-1.776-.773-3.615-1.167-5.417s-.806-3.6-1.226-5.4c-.609-2.62-1.26-5.232-1.9-7.843a13.384,13.384,0,0,0-1.911-2.607c-.693-.882-1.386-1.759-2.062-2.654a39.6,39.6,0,0,1-3.384-5.244C607.873,258.666,607.932,258.62,607.974,258.674Z" transform="translate(-600.634 -223.476)" fill="#263238"/>
        <path id="Tracé_2611" data-name="Tracé 2611" d="M609.139,268.971a37.072,37.072,0,0,1,4,6.361c0,.029-.029.059-.046.029-1.348-2.1-2.675-4.237-4.018-6.349C609.038,268.971,609.113,268.92,609.139,268.971Z" transform="translate(-602.118 -236.766)" fill="#263238"/>
        <path id="Tracé_2612" data-name="Tracé 2612" d="M656.009,243.051c-.915,1.57-1.957,3.46-1.562,5.345.248,1.192,1.121,2.162,1.26,3.38.357,2.691-2.326,4.468-4.262,5.736-4.833,3.174-11.463,6-12.345,12.479-.034.227-.42.172-.42-.055a.151.151,0,0,1,0-.042s-.025-.021-.025-.038a24.836,24.836,0,0,1,.092-9.892,31.606,31.606,0,0,1,3.9-9.271c2.91-4.963,5.992-10.044,10.388-13.856,1.218-1.05,3.712-2.939,4.682-.567S657.126,241.145,656.009,243.051Z" transform="translate(-619.021 -217.145)" fill="#267538"/>
        <path id="Tracé_2613" data-name="Tracé 2613" d="M651.275,269.607c-3.2,3.468-8.3,5.412-11.06,9.3a38.873,38.873,0,0,1,8.5-15.956.126.126,0,0,0-.176-.176,31.49,31.49,0,0,0-6.949,10.048,45.034,45.034,0,0,1,2.99-7.646c.046-.1-.084-.176-.139-.084a29.2,29.2,0,0,0-3.225,8.6c-3.636,8.8-3.972,19.117-3.208,28.393a.1.1,0,0,0,.206,0c-.206-7.31-.088-14.746,1.68-21.884l.113-.445c3-4.2,8.074-6.122,11.337-10.077C651.364,269.624,651.309,269.573,651.275,269.607Z" transform="translate(-618.713 -233.169)" fill="#263238"/>
        <path id="Tracé_2614" data-name="Tracé 2614" d="M664.879,271.965c-1.68,1.545-3.359,3.124-5.039,4.665,0,0,0,.046.025.034a24.609,24.609,0,0,0,5.1-4.6C665.034,271.991,664.946,271.894,664.879,271.965Z" transform="translate(-631.573 -238.501)" fill="#263238"/>
        <path id="Tracé_2615" data-name="Tracé 2615" d="M665.495,256.043a52.769,52.769,0,0,1-5.039,6.924c-.025.025,0,.067.042.042a24.437,24.437,0,0,0,5.085-6.916.055.055,0,0,0-.088-.05Z" transform="translate(-631.925 -229.272)" fill="#263238"/>
        <path id="Tracé_2616" data-name="Tracé 2616" d="M634.074,344.617H619.34l1.986-19.827h10.48Z" transform="translate(-608.079 -269.16)" fill="#455a64"/>
        <path id="Tracé_2617" data-name="Tracé 2617" d="M634.467,328.015H623.29l.328-3.225H634.1Z" transform="translate(-610.37 -269.16)" fill="#263238"/>
        <rect id="Rectangle_301" data-name="Rectangle 301" width="13.814" height="3.166" transform="translate(11.723 53.434)" fill="#455a64"/>
      </g>
      <g id="freepik--Chairs--inject-44" transform="translate(100.315 123.536)">
        <path id="Tracé_2618" data-name="Tracé 2618" d="M270.4,330.38l1.058,6.328,7.146,38.6h1.155l-5.2-38.6-.768-6.328Z" transform="translate(-226.514 -289.496)" fill="#dbdbdb"/>
        <path id="Tracé_2619" data-name="Tracé 2619" d="M273.793,330.38H270.4l1.058,6.328h3.1Z" transform="translate(-226.514 -289.496)" fill="#a6a6a6"/>
        <path id="Tracé_2620" data-name="Tracé 2620" d="M216.94,375.312h1.155l7.146-38.6,1.058-6.328h-3.393l-.768,6.328Z" transform="translate(-195.501 -289.496)" fill="#dbdbdb"/>
        <path id="Tracé_2621" data-name="Tracé 2621" d="M230.088,330.38l-.768,6.328h3.1l1.058-6.328Z" transform="translate(-202.683 -289.496)" fill="#a6a6a6"/>
        <path id="Tracé_2622" data-name="Tracé 2622" d="M165.88,375.312h1.155l7.146-38.6,1.054-6.328h-3.388l-.768,6.328Z" transform="translate(-165.88 -289.496)" fill="#dbdbdb"/>
        <path id="Tracé_2623" data-name="Tracé 2623" d="M178.26,336.708h3.1l1.054-6.328h-3.388Z" transform="translate(-173.062 -289.496)" fill="#a6a6a6"/>
        <path id="Tracé_2624" data-name="Tracé 2624" d="M170.23,276.867h52.381V271.35H203l-6.588-38.34H172.229Z" transform="translate(-168.403 -233.01)" fill="#dbdbdb"/>
        <path id="Tracé_2625" data-name="Tracé 2625" d="M170.23,276.867h2.855l1.864-43.857h-2.721Z" transform="translate(-168.403 -233.01)" fill="#c7c7c7"/>
        <path id="Tracé_2626" data-name="Tracé 2626" d="M501.515,330.38l-1.054,6.328-7.151,38.6h-1.15l5.2-38.6.768-6.328Z" transform="translate(-355.16 -289.496)" fill="#dbdbdb"/>
        <path id="Tracé_2627" data-name="Tracé 2627" d="M505.308,330.38H508.7l-1.054,6.328h-3.1Z" transform="translate(-362.342 -289.496)" fill="#a6a6a6"/>
        <path id="Tracé_2628" data-name="Tracé 2628" d="M554.975,375.312h-1.15l-7.151-38.6-1.054-6.328h3.388l.768,6.328Z" transform="translate(-386.173 -289.496)" fill="#dbdbdb"/>
        <path id="Tracé_2629" data-name="Tracé 2629" d="M549.008,330.38l.768,6.328h-3.1l-1.054-6.328Z" transform="translate(-386.173 -289.496)" fill="#a6a6a6"/>
        <path id="Tracé_2630" data-name="Tracé 2630" d="M606.035,375.312h-1.151l-7.146-38.6-1.058-6.328h3.388l.768,6.328Z" transform="translate(-415.794 -289.496)" fill="#dbdbdb"/>
        <path id="Tracé_2631" data-name="Tracé 2631" d="M600.837,336.708h-3.1l-1.058-6.328h3.388Z" transform="translate(-415.794 -289.496)" fill="#a6a6a6"/>
        <path id="Tracé_2632" data-name="Tracé 2632" d="M542.246,276.867H489.87V271.35h19.6l6.592-38.34h24.185Z" transform="translate(-353.832 -233.01)" fill="#dbdbdb"/>
        <path id="Tracé_2633" data-name="Tracé 2633" d="M608.1,276.867H605.24l-1.86-43.857H606.1Z" transform="translate(-419.681 -233.01)" fill="#c7c7c7"/>
      </g>
      <g id="freepik--Table--inject-44" transform="translate(131.538 104.921)">
        <path id="Tracé_2634" data-name="Tracé 2634" d="M481.314,269.45l-.13,10.065-1.4,62.987H478.2L476.8,279.515l-.126-10.065Z" transform="translate(-377.397 -235.534)" fill="#455a64"/>
        <path id="Tracé_2635" data-name="Tracé 2635" d="M481.314,269.45l-.13,10.065H476.8l-.126-10.065Z" transform="translate(-377.397 -235.534)" fill="#37474f"/>
        <path id="Tracé_2636" data-name="Tracé 2636" d="M268.614,269.45l-.13,10.065-1.4,62.987H265.5L264.1,279.515l-.126-10.065Z" transform="translate(-254.006 -235.534)" fill="#455a64"/>
        <path id="Tracé_2637" data-name="Tracé 2637" d="M263.97,269.45h4.644l-.13,10.065H264.1Z" transform="translate(-254.006 -235.534)" fill="#37474f"/>
        <rect id="Rectangle_302" data-name="Rectangle 302" width="114.418" height="6.538" transform="translate(0 29.751)" fill="#455a64"/>
        <path id="Tracé_2638" data-name="Tracé 2638" d="M268.33,258.41h90.829l-45.415,17.723Z" transform="translate(-256.535 -229.129)" fill="#ebebeb"/>
        <path id="Tracé_2639" data-name="Tracé 2639" d="M366.341,207.422c3.54,3.464,4.132,8.818,3.388,13.516-.021.109-.185.08-.185,0,0-1.067.034-2.129.029-3.183-.021-.05-.038-.092-.055-.143a7.159,7.159,0,0,1-2.3-2.469,28.9,28.9,0,0,1-1.26-3.687c-.042-.118.084-.084.164-.025,2.154,1.587,2.838,3.3,3.456,5.58a18.632,18.632,0,0,0-.374-3.556,12.1,12.1,0,0,0-2.939-5.92C366.189,207.456,366.278,207.359,366.341,207.422Z" transform="translate(-313.166 -199.539)" fill="#263238"/>
        <path id="Tracé_2640" data-name="Tracé 2640" d="M360.863,203.967c-.609.021-.991,1-1.465,1.26a.458.458,0,0,1-.672-.1c-.47-.655.172-1.465.781-1.919a6.845,6.845,0,0,1-1.26.584.441.441,0,0,1-.571-.344c-.206-.894.915-1.289,1.68-1.31-.37-.26-1.44-.966-.873-1.31s1.831.659,2.242.991a3.142,3.142,0,0,1,1.344,1.982C362.11,204.7,361.329,204.156,360.863,203.967Z" transform="translate(-308.352 -195.68)" fill="#267538"/>
        <path id="Tracé_2641" data-name="Tracé 2641" d="M360.863,203.967c-.609.021-.991,1-1.465,1.26a.458.458,0,0,1-.672-.1c-.47-.655.172-1.465.781-1.919a6.845,6.845,0,0,1-1.26.584.441.441,0,0,1-.571-.344c-.206-.894.915-1.289,1.68-1.31-.37-.26-1.44-.966-.873-1.31s1.831.659,2.242.991a3.142,3.142,0,0,1,1.344,1.982C362.11,204.7,361.329,204.156,360.863,203.967Z" transform="translate(-308.352 -195.68)" opacity="0.1"/>
        <path id="Tracé_2642" data-name="Tracé 2642" d="M362.266,205.271c-.781-.353-2.276.155-2.4-.139-.256-.6.936-1.012,1.583-1.092-.6-.16-1.734-.42-1.68-.991.046-.7,1.747-.1,2.612.563,1.083.84,1.075,1.638.9,1.8C363.009,205.632,362.383,205.33,362.266,205.271Z" transform="translate(-309.579 -196.834)" fill="#267538"/>
        <path id="Tracé_2643" data-name="Tracé 2643" d="M380.459,206.609c-3.666,3.33-4.463,8.662-3.9,13.382,0,.1.181.084.185,0,.042-1.067.046-2.129.092-3.183l.059-.139a7.138,7.138,0,0,0,2.393-2.381,34.656,34.656,0,0,0,1.415-3.636c.046-.113-.08-.084-.164-.029-2.213,1.5-2.939,3.187-3.666,5.458a19.283,19.283,0,0,1,.508-3.54,12.131,12.131,0,0,1,3.166-5.807.078.078,0,0,0-.092-.126Z" transform="translate(-319.227 -199.07)" fill="#263238"/>
        <path id="Tracé_2644" data-name="Tracé 2644" d="M385.949,203.372c.609.046.953,1.033,1.415,1.335a.458.458,0,0,0,.676-.08c.5-.638-.118-1.474-.71-1.948a7.165,7.165,0,0,0,1.239.63.445.445,0,0,0,.584-.319c.239-.886-.869-1.327-1.638-1.377.386-.244,1.482-.907.928-1.26s-1.856.592-2.28.907a3.159,3.159,0,0,0-1.419,1.927C384.672,204.06,385.474,203.544,385.949,203.372Z" transform="translate(-324.066 -195.404)" fill="#267538"/>
        <path id="Tracé_2645" data-name="Tracé 2645" d="M385.949,203.372c.609.046.953,1.033,1.415,1.335a.458.458,0,0,0,.676-.08c.5-.638-.118-1.474-.71-1.948a7.165,7.165,0,0,0,1.239.63.445.445,0,0,0,.584-.319c.239-.886-.869-1.327-1.638-1.377.386-.244,1.482-.907.928-1.26s-1.856.592-2.28.907a3.159,3.159,0,0,0-1.419,1.927C384.672,204.06,385.474,203.544,385.949,203.372Z" transform="translate(-324.066 -195.404)" opacity="0.1"/>
        <path id="Tracé_2646" data-name="Tracé 2646" d="M385.7,204.613c.789-.323,2.263.244,2.4-.046.281-.588-.9-1.046-1.537-1.15.6-.139,1.747-.348,1.734-.924,0-.7-1.742-.164-2.628.462-1.117.794-1.142,1.6-.966,1.763S385.573,204.664,385.7,204.613Z" transform="translate(-324.001 -196.499)" fill="#267538"/>
        <path id="Tracé_2647" data-name="Tracé 2647" d="M373.159,210.356a35.687,35.687,0,0,1-1.138,5.261.131.131,0,0,1-.256-.05c.239-1.621.68-3.212.92-4.837a24.2,24.2,0,0,0,.281-4.959,13.325,13.325,0,0,0-2.679-7.776c-.038-.05.046-.122.084-.076a13.69,13.69,0,0,1,3,9.72,10.684,10.684,0,0,1,2.939-5.458c.08-.076.147-.042.134.088-.344,3.2-1.23,4.862-3.086,6.571C373.306,209.357,373.239,209.861,373.159,210.356Z" transform="translate(-315.677 -194.029)" fill="#263238"/>
        <path id="Tracé_2648" data-name="Tracé 2648" d="M365.987,193.119c-.642-.286-1.528.533-2.167.588a.529.529,0,0,1-.642-.449c-.155-.915.92-1.432,1.776-1.6a7.828,7.828,0,0,1-1.6-.034.508.508,0,0,1-.42-.638c.235-1.033,1.6-.882,2.41-.512-.256-.458-1.012-1.73-.248-1.8s1.566,1.6,1.827,2.154a3.756,3.756,0,0,1,.42,2.738C366.911,194.509,366.378,193.548,365.987,193.119Z" transform="translate(-311.407 -188.675)" fill="#267538"/>
        <path id="Tracé_2649" data-name="Tracé 2649" d="M365.987,193.119c-.642-.286-1.528.533-2.167.588a.529.529,0,0,1-.642-.449c-.155-.915.92-1.432,1.776-1.6a7.828,7.828,0,0,1-1.6-.034.508.508,0,0,1-.42-.638c.235-1.033,1.6-.882,2.41-.512-.256-.458-1.012-1.73-.248-1.8s1.566,1.6,1.827,2.154a3.756,3.756,0,0,1,.42,2.738C366.911,194.509,366.378,193.548,365.987,193.119Z" transform="translate(-311.407 -188.675)" opacity="0.1"/>
        <path id="Tracé_2650" data-name="Tracé 2650" d="M367.138,194.656c-.63-.76-2.435-.983-2.419-1.352.034-.752,1.478-.579,2.188-.336-.533-.466-1.587-1.306-1.26-1.881.395-.705,1.86.777,2.419,1.9.71,1.407.3,2.238.029,2.314C367.73,195.4,367.243,194.782,367.138,194.656Z" transform="translate(-312.453 -189.968)" fill="#267538"/>
        <path id="Tracé_2651" data-name="Tracé 2651" d="M371.673,229.833l1.575,12.025H363.67c.2-1.062,1.982-12.038,1.982-12.038Z" transform="translate(-311.844 -212.544)" fill="#267538"/>
      </g>
    </g>
    <g id="vuesax_linear_group" data-name="vuesax/linear/group" transform="translate(-100.555 -44.352)">
      <g id="group" transform="translate(748 636)">
        <path id="Vector" d="M22.283,0H12.264A6,6,0,0,0,8.6,1.52L1.52,8.6A6,6,0,0,0,0,12.264V22.283a6,6,0,0,0,1.52,3.662L8.6,33.028a6,6,0,0,0,3.662,1.52H22.283a6,6,0,0,0,3.662-1.52l7.082-7.082a6,6,0,0,0,1.52-3.662V12.264A6,6,0,0,0,33.028,8.6L25.945,1.52A6,6,0,0,0,22.283,0Z" transform="translate(3.455 3.455)" fill="none" stroke="#267538" stroke-linecap="round" stroke-linejoin="round" stroke-width="2.5"/>
        <path id="Vector-2" data-name="Vector" d="M0,24.425,24.425,0" transform="translate(8.533 8.533)" fill="none" stroke="#267538" stroke-linecap="round" stroke-linejoin="round" stroke-width="2.5"/>
        <path id="Vector-3" data-name="Vector" d="M0,0H41.457V41.457H0Z" fill="none" opacity="0"/>
      </g>
    </g>
  </g>
</svg>
