<svg xmlns="http://www.w3.org/2000/svg" xmlns:xlink="http://www.w3.org/1999/xlink" width="259.97" height="236.27" viewBox="0 0 259.97 236.27">
  <defs>
    <clipPath id="clip-path">
      <path id="Tracé_3082" data-name="Tracé 3082" d="M177.78,359.56l20.91-12.08a3.86,3.86,0,0,1,3.47,0L219,357.21a1.05,1.05,0,0,1,0,2l-20.91,12.07a3.83,3.83,0,0,1-3.46,0l-16.85-9.72a1.06,1.06,0,0,1,0-2Z" fill="none"/>
    </clipPath>
  </defs>
  <g id="receipt-empty" transform="translate(-98.87 -170.63)">
    <g id="freepik--Calculator--inject-1--inject-95">
      <path id="Tracé_3022" data-name="Tracé 3022" d="M314.08,233.63,290.9,220.25l-29.27-16.9h-.07c-2.63-1.46-4.27-4.67-4.27-9.26,0-4.4-1.5-7.53-3.93-9.07l20,11.54,3.16,1.82,29.23,16.87.32.19c2.51,1.5,4.06,4.67,4.06,9.14S311.61,232.1,314.08,233.63Z" fill="#bebebe"/>
      <g id="Groupe_8828" data-name="Groupe 8828" opacity="0.1">
        <path id="Tracé_3023" data-name="Tracé 3023" d="M314.08,233.63,290.9,220.25l-29.27-16.9h-.07c-2.63-1.46-4.27-4.67-4.27-9.26,0-4.4-1.5-7.53-3.93-9.07l20,11.54,3.16,1.82,29.23,16.87.32.19c2.51,1.5,4.06,4.67,4.06,9.14S311.61,232.1,314.08,233.63Z"/>
      </g>
      <path id="Tracé_3024" data-name="Tracé 3024" d="M338.53,201.07v7.05c0,9.07-6.36,20.09-14.21,24.62-3.87,2.24-7.39,2.48-9.95,1.06l-.29-.17c-2.47-1.53-4-4.67-4-9.09s-1.55-7.64-4.06-9.14l-.32-.19-29.23-16.87c5.4-5.45,9.24-13.67,9.24-20.71v-7Z" fill="#bebebe"/>
      <path id="Tracé_3025" data-name="Tracé 3025" d="M305.72,215.21c-2.56-1.35-6-1.09-9.84,1.12a23.841,23.841,0,0,0-5,3.92c-5.4,5.44-9.23,13.66-9.23,20.7,0,9.07-6.37,20.09-14.22,24.63l-14.22,8.21L200.42,243.3l14.22-8.21c7.85-4.53,14.22-15.56,14.22-24.63s6.36-20.09,14.22-24.62c3.86-2.23,7.37-2.47,9.93-1.06h0l.34.19,20,11.54,3.16,1.82Z" fill="#bebebe"/>
      <g id="Groupe_8829" data-name="Groupe 8829" opacity="0.4">
        <path id="Tracé_3026" data-name="Tracé 3026" d="M305.72,215.21c-2.56-1.35-6-1.09-9.84,1.12a23.841,23.841,0,0,0-5,3.92c-5.4,5.44-9.23,13.66-9.23,20.7,0,9.07-6.37,20.09-14.22,24.63l-14.22,8.21L200.42,243.3l14.22-8.21c7.85-4.53,14.22-15.56,14.22-24.63s6.36-20.09,14.22-24.62c3.86-2.23,7.37-2.47,9.93-1.06h0l.34.19,20,11.54,3.16,1.82Z" fill="#fff"/>
      </g>
      <path id="Tracé_3027" data-name="Tracé 3027" d="M265.37,247.55c-.33-2.2-2.12-3-4.28-1.75l-7.86,4.53-16,9.23a77,77,0,0,0-8.43,5.36,100.129,100.129,0,0,0-11.47,11.6c-7,8-14,16.68-21,20.72l-36.29,20.95a9.58,9.58,0,0,0-4.33,7.5v13.45c0,2.56,1.67,3.71,3.82,2.76a9.67,9.67,0,0,1-8.15-.26L103.2,313.81a9.58,9.58,0,0,1-4.33-7.5V292.86a9.56,9.56,0,0,1,4.33-7.5l36.29-21c7-4,14-12.72,21-20.71A100.261,100.261,0,0,1,172,232.08a77.323,77.323,0,0,1,8.42-5.35l16-9.23,7.85-4.54a9.57,9.57,0,0,1,8.66,0l48.21,27.84A9.69,9.69,0,0,1,265.37,247.55Z" fill="#455a64"/>
      <path id="Tracé_3028" data-name="Tracé 3028" d="M159.8,327.72s-60.93-34.87-60.92-35.17V306.3a9.56,9.56,0,0,0,4.33,7.5l48.21,27.84a9.57,9.57,0,0,0,8.66,0l2.06-1.19Z" fill="#37474f"/>
      <path id="Tracé_3029" data-name="Tracé 3029" d="M261.08,245.79l-23.83,13.77a78.428,78.428,0,0,0-8.43,5.35C218,273.65,207.18,291,196.36,297.23l-36.29,21a9.56,9.56,0,0,0-4.33,7.5v13.45c0,2.76,1.94,3.88,4.33,2.5l101-58.32a9.58,9.58,0,0,0,4.33-7.5V248.29C265.42,245.53,263.48,244.41,261.08,245.79Z" fill="#263238"/>
      <path id="Tracé_3030" data-name="Tracé 3030" d="M229.13,254.87a77.007,77.007,0,0,0-8.43,5.36,64.829,64.829,0,0,0-5.91,5.53,2.69,2.69,0,0,1-3.11.45l-37.17-21.46a1.5,1.5,0,0,1-.36-2.45,65.149,65.149,0,0,1,5.93-5.53,77.32,77.32,0,0,1,8.42-5.35c4.55-2.64,9.65-5.59,14.25-8.23a3.86,3.86,0,0,1,3.47,0l37.16,21.45a1.06,1.06,0,0,1,0,2Z" fill="#37474f"/>
      <path id="Tracé_3031" data-name="Tracé 3031" d="M206.22,225a3.85,3.85,0,0,0-3.47,0l-14.25,8.24a77.324,77.324,0,0,0-8.42,5.35,66.433,66.433,0,0,0-5.93,5.52l-.18.23a1.91,1.91,0,0,0,.54.47l37.17,21.46a2.69,2.69,0,0,0,3.11-.45,64.836,64.836,0,0,1,5.91-5.53,77,77,0,0,1,8.43-5.36l14.25-8.23.17-.12-.17-.12Z" fill="#fff"/>
      <path id="Tracé_3032" data-name="Tracé 3032" d="M151.68,332.41c0,1.3-1,1.79-2.17,1.1L105.1,307.87a4.64,4.64,0,0,1-2.16-3.6c0-1.3,1-1.79,2.16-1.1l44.41,25.65a4.64,4.64,0,0,1,2.17,3.59Z" fill="#263238"/>
      <path id="Tracé_3033" data-name="Tracé 3033" d="M167.68,286.1v-1.78l-2.06-.15L161,281.48a4.79,4.79,0,0,0-4.33,0l-3.12,1.8-1.57-.12v1.73h0a1.49,1.49,0,0,0,.89,1.28l5.82,3.36a4.79,4.79,0,0,0,4.33,0l3.8-2.19a1.53,1.53,0,0,0,.89-1.23h0Z" fill="#e0e0e0"/>
      <path id="Tracé_3034" data-name="Tracé 3034" d="M161,279.72l5.83,3.36a1.32,1.32,0,0,1,0,2.5l-3.8,2.19a4.79,4.79,0,0,1-4.33,0l-5.82-3.36a1.32,1.32,0,0,1,0-2.5l3.79-2.19A4.79,4.79,0,0,1,161,279.72Z" fill="#f5f5f5"/>
      <path id="Tracé_3035" data-name="Tracé 3035" d="M152.45,277.28V275.5l-2.06-.15-4.66-2.69a4.79,4.79,0,0,0-4.33,0l-3.12,1.8-1.57-.11v1.72h0a1.5,1.5,0,0,0,.9,1.27l5.82,3.36a4.73,4.73,0,0,0,4.33,0l3.79-2.19a1.51,1.51,0,0,0,.9-1.23h0Z" fill="#e0e0e0"/>
      <path id="Tracé_3036" data-name="Tracé 3036" d="M145.73,270.9l5.82,3.37a1.32,1.32,0,0,1,0,2.5L147.76,279a4.79,4.79,0,0,1-4.33,0l-5.82-3.37a1.32,1.32,0,0,1,0-2.5l3.79-2.19A4.79,4.79,0,0,1,145.73,270.9Z" fill="#f5f5f5"/>
      <path id="Tracé_3037" data-name="Tracé 3037" d="M182.91,294.89v-1.78l-2-.15-4.67-2.69a4.79,4.79,0,0,0-4.33,0l-3.11,1.8-1.58-.12v1.73h0a1.5,1.5,0,0,0,.89,1.28l5.83,3.36a4.79,4.79,0,0,0,4.33,0l3.79-2.19a1.51,1.51,0,0,0,.89-1.23h0Z" fill="#e0e0e0"/>
      <path id="Tracé_3038" data-name="Tracé 3038" d="M176.2,288.51l5.82,3.36a1.32,1.32,0,0,1,0,2.5l-3.79,2.19a4.79,4.79,0,0,1-4.33,0l-5.83-3.36a1.32,1.32,0,0,1,0-2.5l3.8-2.19a4.79,4.79,0,0,1,4.33,0Z" fill="#f5f5f5"/>
      <path id="Tracé_3039" data-name="Tracé 3039" d="M179.87,279.07v-1.78l-2.06-.15-4.66-2.69a4.79,4.79,0,0,0-4.33,0l-3.12,1.8-1.57-.12v1.73h0a1.5,1.5,0,0,0,.89,1.28l5.83,3.36a4.79,4.79,0,0,0,4.33,0l3.79-2.19a1.55,1.55,0,0,0,.9-1.23h0Z" fill="#e0e0e0"/>
      <path id="Tracé_3040" data-name="Tracé 3040" d="M173.15,272.69l5.82,3.36a1.32,1.32,0,0,1,0,2.5l-3.79,2.19a4.79,4.79,0,0,1-4.33,0L165,277.38a1.32,1.32,0,0,1,0-2.5l3.8-2.19A4.79,4.79,0,0,1,173.15,272.69Z" fill="#f5f5f5"/>
      <path id="Tracé_3041" data-name="Tracé 3041" d="M164.64,270.25v-1.78l-2.06-.15-4.66-2.69a4.79,4.79,0,0,0-4.33,0l-3.12,1.8-1.57-.11V269h0a1.49,1.49,0,0,0,.89,1.28l5.83,3.36a4.79,4.79,0,0,0,4.33,0l3.79-2.19a1.5,1.5,0,0,0,.89-1.23h0Z" fill="#e0e0e0"/>
      <path id="Tracé_3042" data-name="Tracé 3042" d="M157.92,263.87l5.82,3.37a1.32,1.32,0,0,1,0,2.5L160,271.93a4.79,4.79,0,0,1-4.33,0l-5.83-3.37a1.32,1.32,0,0,1,0-2.5l3.8-2.19A4.79,4.79,0,0,1,157.92,263.87Z" fill="#f5f5f5"/>
      <path id="Tracé_3043" data-name="Tracé 3043" d="M195.1,287.86v-1.78l-2.06-.15-4.66-2.69a4.79,4.79,0,0,0-4.33,0l-3.12,1.8-1.57-.12v1.73h0a1.52,1.52,0,0,0,.9,1.28l5.82,3.36a4.79,4.79,0,0,0,4.33,0l3.8-2.19a1.53,1.53,0,0,0,.89-1.23h0Z" fill="#e0e0e0"/>
      <path id="Tracé_3044" data-name="Tracé 3044" d="M188.38,281.48l5.83,3.36a1.32,1.32,0,0,1,0,2.5l-3.8,2.19a4.79,4.79,0,0,1-4.33,0l-5.82-3.36a1.32,1.32,0,0,1,0-2.5l3.79-2.19A4.79,4.79,0,0,1,188.38,281.48Z" fill="#f5f5f5"/>
      <path id="Tracé_3045" data-name="Tracé 3045" d="M155.5,293.16v-1.78l-2.06-.15-4.66-2.69a4.73,4.73,0,0,0-4.33,0l-3.12,1.8-1.57-.12V292h0a1.52,1.52,0,0,0,.89,1.28l5.83,3.36a4.79,4.79,0,0,0,4.33,0l3.79-2.19a1.55,1.55,0,0,0,.9-1.23h0Z" fill="#e0e0e0"/>
      <path id="Tracé_3046" data-name="Tracé 3046" d="M148.78,286.78l5.82,3.36a1.32,1.32,0,0,1,0,2.5l-3.79,2.19a4.79,4.79,0,0,1-4.33,0l-5.83-3.36a1.32,1.32,0,0,1,0-2.5l3.8-2.19a4.79,4.79,0,0,1,4.33,0Z" fill="#f5f5f5"/>
      <path id="Tracé_3047" data-name="Tracé 3047" d="M140.26,284.34v-1.78l-2-.15-4.67-2.69a4.79,4.79,0,0,0-4.33,0l-3.11,1.8-1.58-.12v1.73h0a1.5,1.5,0,0,0,.89,1.28l5.83,3.36a4.79,4.79,0,0,0,4.33,0l3.79-2.19a1.51,1.51,0,0,0,.89-1.23h0Z" fill="#e0e0e0"/>
      <path id="Tracé_3048" data-name="Tracé 3048" d="M133.54,278l5.83,3.36a1.32,1.32,0,0,1,0,2.5L135.58,286a4.79,4.79,0,0,1-4.33,0l-5.83-3.36a1.32,1.32,0,0,1,0-2.5l3.79-2.19A4.79,4.79,0,0,1,133.54,278Z" fill="#f5f5f5"/>
      <path id="Tracé_3049" data-name="Tracé 3049" d="M170.73,302v-1.78l-2.06-.15L164,297.33a4.73,4.73,0,0,0-4.33,0l-3.12,1.8L155,299v1.73h0a1.53,1.53,0,0,0,.9,1.28l5.82,3.36a4.79,4.79,0,0,0,4.33,0l3.79-2.19a1.55,1.55,0,0,0,.9-1.23h0Z" fill="#e0e0e0"/>
      <path id="Tracé_3050" data-name="Tracé 3050" d="M164,295.57l5.82,3.36a1.32,1.32,0,0,1,0,2.5L166,303.62a4.79,4.79,0,0,1-4.33,0l-5.82-3.36a1.32,1.32,0,0,1,0-2.5l3.79-2.19A4.79,4.79,0,0,1,164,295.57Z" fill="#f5f5f5"/>
      <path id="Tracé_3051" data-name="Tracé 3051" d="M143.3,300.18V298.4l-2.06-.15-4.66-2.7a4.79,4.79,0,0,0-4.33,0l-3.12,1.8-1.57-.11V299h0a1.5,1.5,0,0,0,.9,1.27l5.82,3.37a4.79,4.79,0,0,0,4.33,0l3.8-2.19a1.53,1.53,0,0,0,.89-1.24Z" fill="#e0e0e0"/>
      <path id="Tracé_3052" data-name="Tracé 3052" d="M136.58,293.79l5.83,3.37a1.32,1.32,0,0,1,0,2.5l-3.8,2.19a4.79,4.79,0,0,1-4.33,0l-5.82-3.36a1.32,1.32,0,0,1,0-2.5l3.79-2.2A4.79,4.79,0,0,1,136.58,293.79Z" fill="#f5f5f5"/>
      <path id="Tracé_3053" data-name="Tracé 3053" d="M128.07,291.36v-1.78l-2.06-.15-4.66-2.69a4.79,4.79,0,0,0-4.33,0l-3.12,1.8-1.57-.12v1.73h0a1.5,1.5,0,0,0,.89,1.28l5.83,3.36a4.79,4.79,0,0,0,4.33,0l3.79-2.19a1.55,1.55,0,0,0,.9-1.23h0Z" fill="#e0e0e0"/>
      <path id="Tracé_3054" data-name="Tracé 3054" d="M121.35,285l5.82,3.36a1.32,1.32,0,0,1,0,2.5L123.38,293a4.79,4.79,0,0,1-4.33,0l-5.83-3.36a1.32,1.32,0,0,1,0-2.5L117,285a4.79,4.79,0,0,1,4.35,0Z" fill="#f5f5f5"/>
      <path id="Tracé_3055" data-name="Tracé 3055" d="M158.53,309v-1.78l-2.05-.15-4.67-2.7a4.79,4.79,0,0,0-4.33,0l-3.12,1.8-1.57-.11v1.73h0a1.49,1.49,0,0,0,.89,1.27l5.82,3.37a4.79,4.79,0,0,0,4.33,0l3.8-2.19a1.51,1.51,0,0,0,.89-1.24Z" fill="#e0e0e0"/>
      <path id="Tracé_3056" data-name="Tracé 3056" d="M151.81,302.58l5.83,3.37a1.32,1.32,0,0,1,0,2.5l-3.8,2.19a4.79,4.79,0,0,1-4.33,0l-5.82-3.36a1.32,1.32,0,0,1,0-2.5l3.79-2.2a4.79,4.79,0,0,1,4.33,0Z" fill="#f5f5f5"/>
      <path id="Tracé_3057" data-name="Tracé 3057" d="M174.62,258.12h0l-.37-1.53-1.54-.13-5-2.91c-2.39-1.38-5.56-1.09-7.1.61a3.13,3.13,0,0,0-.7,1.25h-.44l.39,1.62h0a4.49,4.49,0,0,0,2.23,2.69l6.14,3.54a2.65,2.65,0,0,0,3.11-.45q1.45-1.55,2.91-3.2A1.6,1.6,0,0,0,174.62,258.12Z" fill="#e0e0e0"/>
      <path id="Tracé_3058" data-name="Tracé 3058" d="M167.84,261.71l-6.14-3.54c-2.39-1.38-3-3.84-1.49-5.54s4.71-2,7.1-.61l6.14,3.54a1.58,1.58,0,0,1,.41,2.5q-1.46,1.65-2.91,3.2A2.64,2.64,0,0,1,167.84,261.71Z" fill="#f5f5f5"/>
      <path id="Tracé_3059" data-name="Tracé 3059" d="M206,277.22h0l-.37-1.55h-.44a5.44,5.44,0,0,0-1.49-1.24l-6.13-3.54a2.55,2.55,0,0,0-3.06.5c-1,1.07-1.91,2.13-2.86,3.15l-.87-.07.39,1.61h0a1.57,1.57,0,0,0,.77,1l6.13,3.54c2.39,1.38,5.63,1.16,7.18-.54a3,3,0,0,0,.75-2.86Z" fill="#e0e0e0"/>
      <path id="Tracé_3060" data-name="Tracé 3060" d="M197.73,279l-6.13-3.54a1.51,1.51,0,0,1-.36-2.45q1.45-1.56,2.91-3.2a2.55,2.55,0,0,1,3.06-.5l6.13,3.54c2.4,1.38,3.11,3.91,1.57,5.61S200.13,280.36,197.73,279Z" fill="#f5f5f5"/>
      <path id="Tracé_3061" data-name="Tracé 3061" d="M190.64,267.52h0l-.37-1.51-1.17-.08-7.35-4.24a3.19,3.19,0,0,0-3.82.62c-.75.84-1.49,1.66-2.24,2.47a2.478,2.478,0,0,0-.19.26h-.74l.38,1.58h0a1.94,1.94,0,0,0,1,1.26l7.87,4.54a3.3,3.3,0,0,0,3.88-.56c.75-.8,1.5-1.63,2.24-2.46a2,2,0,0,0,.51-1.88Z" fill="#e0e0e0"/>
      <path id="Tracé_3062" data-name="Tracé 3062" d="M189.77,267.82c-.74.83-1.49,1.66-2.23,2.46a3.32,3.32,0,0,1-3.89.56l-7.87-4.54a1.89,1.89,0,0,1-.45-3.06c.75-.81,1.49-1.63,2.24-2.47a3.19,3.19,0,0,1,3.82-.62l7.87,4.54a2,2,0,0,1,.51,3.13Z" fill="#f5f5f5"/>
    </g>
    <g id="freepik--credit-card--inject-1--inject-95">
      <path id="Tracé_3063" data-name="Tracé 3063" d="M153.41,354.87l122.46-70.71a3.83,3.83,0,0,1,3.46,0l77.78,44.91a3.81,3.81,0,0,1,1.73,3v.69a3.82,3.82,0,0,1-1.73,3l-122.46,70.7a3.78,3.78,0,0,1-3.45,0L153.4,360.8a3.83,3.83,0,0,1-1.72-3,3.79,3.79,0,0,1,1.73-2.93Z" fill="#bebebe"/>
      <g id="Groupe_8830" data-name="Groupe 8830" opacity="0.2">
        <path id="Tracé_3064" data-name="Tracé 3064" d="M153.41,354.87l122.46-70.71a3.83,3.83,0,0,1,3.46,0l77.78,44.91a3.81,3.81,0,0,1,1.73,3v.69a3.82,3.82,0,0,1-1.73,3l-122.46,70.7a3.78,3.78,0,0,1-3.45,0L153.4,360.8a3.83,3.83,0,0,1-1.72-3,3.79,3.79,0,0,1,1.73-2.93Z" fill="#fff"/>
      </g>
      <path id="Tracé_3065" data-name="Tracé 3065" d="M151.68,357.83a3.83,3.83,0,0,0,1.72,3l77.8,45.65a6.22,6.22,0,0,0,1.72.42V393.39l-4.06-53.94-44.68-2.35-30.77,17.77A3.79,3.79,0,0,0,151.68,357.83Z" fill="#bebebe"/>
      <line id="Ligne_156" data-name="Ligne 156" x2="77.8" y2="45.65" transform="translate(153.4 360.8)" fill="#bebebe"/>
      <path id="Tracé_3066" data-name="Tracé 3066" d="M151.68,357.83a3.83,3.83,0,0,0,1.72,3l77.8,45.65a6.22,6.22,0,0,0,1.72.42V393.39l-4.06-53.94-44.68-2.35-30.77,17.77A3.79,3.79,0,0,0,151.68,357.83Z" fill="#bebebe"/>
      <line id="Ligne_157" data-name="Ligne 157" x2="77.8" y2="45.65" transform="translate(153.4 360.8)" fill="#bebebe"/>
      <g id="Groupe_8831" data-name="Groupe 8831" opacity="0.2">
        <path id="Tracé_3067" data-name="Tracé 3067" d="M151.68,357.83a3.83,3.83,0,0,0,1.72,3l77.8,45.65a6.22,6.22,0,0,0,1.72.42V393.39l-4.06-53.94-44.68-2.35-30.77,17.77A3.79,3.79,0,0,0,151.68,357.83Z"/>
        <line id="Ligne_158" data-name="Ligne 158" x2="77.8" y2="45.65" transform="translate(153.4 360.8)"/>
      </g>
      <path id="Tracé_3068" data-name="Tracé 3068" d="M279.33,284.16l77.78,44.91a1.05,1.05,0,0,1,0,2l-122.46,70.7a3.83,3.83,0,0,1-3.46,0l-77.78-44.9a1.06,1.06,0,0,1,0-2l122.46-70.71a3.83,3.83,0,0,1,3.46,0Z" fill="#bebebe"/>
      <path id="Tracé_3069" data-name="Tracé 3069" d="M221.37,335a1.46,1.46,0,0,1-.63-.21l-7.6-4.39c-.23-.13-.35-.26-.37-.37s.08-.24.29-.36l3.39-1.95a4.9,4.9,0,0,1,5.16,0,2,2,0,0,1,.82.76.75.75,0,0,1,0,.78,3.89,3.89,0,0,1,3,.45,2.088,2.088,0,0,1,1.23,1.54c.03.54-.43,1.13-1.36,1.67l-3.3,1.85A1.12,1.12,0,0,1,221.37,335Zm-1.86-5c.23-.14.35-.28.34-.43s-.14-.31-.4-.46a1.59,1.59,0,0,0-.79-.24,1.52,1.52,0,0,0-.74.21l-1.25.73,1.59.91Zm3.72,1.93c.25-.14.35-.3.32-.47a.77.77,0,0,0-.43-.48,1.81,1.81,0,0,0-.89-.26,1.53,1.53,0,0,0-.81.21l-1.4.81,1.77,1Z" fill="#fff"/>
      <path id="Tracé_3070" data-name="Tracé 3070" d="M227.73,331.19a.89.89,0,0,1-.2-.19l-5.1-6.27a.63.63,0,0,1-.15-.32c0-.08.08-.16.23-.24l1-.6a.92.92,0,0,1,.43-.13,1.82,1.82,0,0,1,.54.09l10.87,2.94a1,1,0,0,1,.31.11c.08,0,.12.09.12.14s0,.1-.11.14l-1.76,1a.84.84,0,0,1-.33.1,1,1,0,0,1-.39-.06l-1.66-.49-2.38,1.37.87.95a.3.3,0,0,1,.1.23.38.38,0,0,1-.19.19l-1.75,1A.44.44,0,0,1,227.73,331.19Zm1.55-4.51-2.93-.88,1.54,1.69Z" fill="#fff"/>
      <path id="Tracé_3071" data-name="Tracé 3071" d="M236.66,326.12a1.46,1.46,0,0,1-.63-.21l-7.61-4.4q-.34-.19-.36-.36t.3-.36l.9-.52a1.2,1.2,0,0,1,.39-.15,1.46,1.46,0,0,1,.5,0l7,1-4-2.32c-.22-.13-.35-.26-.37-.37s.08-.24.29-.36l1.11-.64a1.2,1.2,0,0,1,.63-.17,1.461,1.461,0,0,1,.64.21l7.61,4.4q.34.19.36.36c0,.11-.1.23-.32.36l-.89.51a1.19,1.19,0,0,1-.39.16,1.41,1.41,0,0,1-.49,0l-7-1,4,2.33q.34.2.36.36c0,.11-.1.23-.32.36l-1.1.64a1.19,1.19,0,0,1-.61.17Z" fill="#fff"/>
      <path id="Tracé_3072" data-name="Tracé 3072" d="M251.31,317.56c.07,0,.12.09.12.14s0,.1-.11.14l-1.76,1a1.23,1.23,0,0,1-.28.12.65.65,0,0,1-.28,0l-5.93-.85,3.21,1.86c.23.13.35.25.37.37s-.09.23-.31.36l-1.11.63a1.07,1.07,0,0,1-.61.18,1.33,1.33,0,0,1-.63-.22l-7.6-4.38c-.23-.13-.35-.26-.37-.37s.08-.24.29-.36l1.1-.64a1.2,1.2,0,0,1,.63-.17,1.42,1.42,0,0,1,.64.21l3.15,1.82-1.5-3.33a.17.17,0,0,1,0-.17.751.751,0,0,1,.22-.17l1.75-1a.5.5,0,0,1,.24-.06.45.45,0,0,1,.25.07.34.34,0,0,1,.17.19l1.49,3.67,6.53.85a.75.75,0,0,1,.33.11Z" fill="#fff"/>
      <path id="Tracé_3073" data-name="Tracé 3073" d="M255.78,314.12a9.51,9.51,0,0,1-4.59-1.36c-1.53-.89-2.32-1.76-2.39-2.64s.58-1.69,1.92-2.47a9.31,9.31,0,0,1,1.78-.79,7.76,7.76,0,0,1,1.76-.36.6.6,0,0,1,.36.07.61.61,0,0,1,.19.2l.47.84c.07.09.07.16,0,.2a.82.82,0,0,1-.32.08,5.36,5.36,0,0,0-2,.68c-.71.4-1,.85-.93,1.34s.58,1,1.49,1.53a5.84,5.84,0,0,0,2.69.84,4.35,4.35,0,0,0,2.38-.55,2.7,2.7,0,0,0,1.21-1.21.47.47,0,0,1,.14-.18.53.53,0,0,1,.34,0l1.52.28a1,1,0,0,1,.3.1.22.22,0,0,1,.11.22c-.13.66-.82,1.35-2.06,2.06a8.18,8.18,0,0,1-4.37,1.12Z" fill="#fff"/>
      <path id="Tracé_3074" data-name="Tracé 3074" d="M262.86,310.91a.9.9,0,0,1-.21-.19l-5.09-6.27a.47.47,0,0,1-.15-.32c0-.08.08-.16.22-.24l1-.6a.86.86,0,0,1,.42-.13,1.869,1.869,0,0,1,.55.09l10.87,2.94a.9.9,0,0,1,.3.11c.08,0,.12.09.12.14s0,.1-.11.14l-1.76,1a.75.75,0,0,1-.32.1,1,1,0,0,1-.39-.06l-1.66-.49-2.39,1.38.88,1c.07.08.11.16.09.22a.341.341,0,0,1-.19.19l-1.75,1a.42.42,0,0,1-.43-.01Zm1.54-4.51-2.92-.88,1.54,1.69Z" fill="#fff"/>
      <path id="Tracé_3075" data-name="Tracé 3075" d="M271.79,305.84a1.46,1.46,0,0,1-.64-.21l-7.6-4.39c-.22-.13-.34-.25-.36-.37s.07-.23.29-.36l2.79-1.61a5.68,5.68,0,0,1,6.12,0c1.25.72,1.69,1.46,1.33,2.22l3.95,1a.809.809,0,0,1,.25.09.24.24,0,0,1,.13.16c0,.06,0,.11-.12.16l-1.59.92a1.281,1.281,0,0,1-.32.12.68.68,0,0,1-.34,0l-3.61-1-.88.51,2.26,1.3c.23.13.35.26.36.37s-.08.23-.3.36l-1.11.64A1.16,1.16,0,0,1,271.79,305.84Zm-1.63-4.41c.69-.4.66-.81-.07-1.23a2,2,0,0,0-2.09-.08l-.9.52,2.22,1.28Z" fill="#fff"/>
      <path id="Tracé_3076" data-name="Tracé 3076" d="M279,301.67a1.46,1.46,0,0,1-.63-.21l-7.6-4.39c-.22-.13-.35-.25-.37-.37s.08-.23.29-.35l2.51-1.45a7.76,7.76,0,0,1,4.05-1.09,9.25,9.25,0,0,1,4.4,1.36c1.49.87,2.27,1.71,2.33,2.53s-.56,1.61-1.86,2.36l-2.5,1.44a1.08,1.08,0,0,1-.62.17Zm1.32-2.77c.55-.32.76-.66.64-1a3.681,3.681,0,0,0-1.6-1.38,6.26,6.26,0,0,0-2.37-.91,2.79,2.79,0,0,0-1.77.37l-.9.52,5.1,2.95Z" fill="#fff"/>
      <path id="Tracé_3077" data-name="Tracé 3077" d="M177.78,359.56l20.91-12.08a3.86,3.86,0,0,1,3.47,0L219,357.21a1.05,1.05,0,0,1,0,2l-20.91,12.07a3.83,3.83,0,0,1-3.46,0l-16.85-9.72a1.06,1.06,0,0,1,0-2Z" fill="#e0e0e0"/>
      <g id="Groupe_8832" data-name="Groupe 8832" clip-path="url(#clip-path)">
        <path id="Tracé_3078" data-name="Tracé 3078" d="M208.64,370.37l-14.58-8.25a3.55,3.55,0,0,0-3.5,0L180.36,368l-.5-.86,10.2-5.89a4.55,4.55,0,0,1,4.49,0l14.58,8.25Z" fill="#fff"/>
        <path id="Tracé_3079" data-name="Tracé 3079" d="M204.49,358.08a4.57,4.57,0,0,1-2.29-.61L188,349.26l.5-.86,14.21,8.2a3.56,3.56,0,0,0,3.57,0l10.15-5.86.5.87-10.15,5.86a4.53,4.53,0,0,1-2.29.61Z" fill="#fff"/>
        <path id="Tracé_3080" data-name="Tracé 3080" d="M200.67,356.3l-.5-.87,11.44-6.6-3.06-1.77-11.94,6.89-.5-.86,12.44-7.18,5.06,2.92Z" fill="#fff"/>
        <path id="Tracé_3081" data-name="Tracé 3081" d="M188.24,372.86l-5.07-2.92,13.03-7.47.5.86-11.52,6.61,3.06,1.76,12.02-6.93.5.86Z" fill="#fff"/>
      </g>
      <path id="Tracé_3083" data-name="Tracé 3083" d="M207.07,375.48l19.18-11.07a5.74,5.74,0,0,1,5.2,0l2.92,1.69c1.44.82,1.44,2.17,0,3L215.2,380.17a5.74,5.74,0,0,1-5.2,0l-2.93-1.69C205.64,377.65,205.64,376.3,207.07,375.48Z" fill="#bebebe"/>
      <g id="Groupe_8833" data-name="Groupe 8833" opacity="0.7">
        <path id="Tracé_3084" data-name="Tracé 3084" d="M208.07,375.48l19.18-11.07a5.74,5.74,0,0,1,5.2,0l2.92,1.69c1.44.82,1.44,2.17,0,3L216.2,380.17a5.74,5.74,0,0,1-5.2,0l-2.93-1.69C206.64,377.65,206.64,376.3,208.07,375.48Z" fill="#fff"/>
      </g>
      <path id="Tracé_3085" data-name="Tracé 3085" d="M235.51,359.06,254.68,348a5.74,5.74,0,0,1,5.2,0l2.93,1.69c1.43.83,1.43,2.17,0,3l-19.18,11.07a5.72,5.72,0,0,1-5.19,0l-2.93-1.69C234.07,361.23,234.07,359.89,235.51,359.06Z" fill="#bebebe"/>
      <path id="Tracé_3086" data-name="Tracé 3086" d="M235.51,359.06,254.68,348a5.74,5.74,0,0,1,5.2,0l2.93,1.69c1.43.83,1.43,2.17,0,3l-19.18,11.07a5.72,5.72,0,0,1-5.19,0l-2.93-1.69C234.07,361.23,234.07,359.89,235.51,359.06Z" fill="#bebebe"/>
      <path id="Tracé_3087" data-name="Tracé 3087" d="M235.51,359.06,254.68,348a5.74,5.74,0,0,1,5.2,0l2.93,1.69c1.43.83,1.43,2.17,0,3l-19.18,11.07a5.72,5.72,0,0,1-5.19,0l-2.93-1.69C234.07,361.23,234.07,359.89,235.51,359.06Z" fill="#fff" opacity="0.7"/>
      <path id="Tracé_3088" data-name="Tracé 3088" d="M263.94,342.64l19.18-11.07a5.72,5.72,0,0,1,5.19,0l2.93,1.69c1.44.83,1.44,2.17,0,3l-19.17,11.07a5.74,5.74,0,0,1-5.2,0l-2.93-1.69C262.51,344.81,262.51,343.47,263.94,342.64Z" fill="#bebebe"/>
      <path id="Tracé_3089" data-name="Tracé 3089" d="M263.94,342.64l19.18-11.07a5.72,5.72,0,0,1,5.19,0l2.93,1.69c1.44.83,1.44,2.17,0,3l-19.17,11.07a5.74,5.74,0,0,1-5.2,0l-2.93-1.69C262.51,344.81,262.51,343.47,263.94,342.64Z" fill="#fff" opacity="0.7"/>
      <path id="Tracé_3090" data-name="Tracé 3090" d="M292.38,326.23l19.17-11.07a5.74,5.74,0,0,1,5.2,0l2.93,1.69c1.43.82,1.43,2.17,0,3L300.5,330.92a5.74,5.74,0,0,1-5.2,0l-2.92-1.69C290.94,328.4,290.94,327.05,292.38,326.23Z" fill="#bebebe"/>
      <path id="Tracé_3091" data-name="Tracé 3091" d="M292.38,326.23l19.17-11.07a5.74,5.74,0,0,1,5.2,0l2.93,1.69c1.43.82,1.43,2.17,0,3L300.5,330.92a5.74,5.74,0,0,1-5.2,0l-2.92-1.69C290.94,328.4,290.94,327.05,292.38,326.23Z" fill="#fff" opacity="0.7"/>
      <path id="Tracé_3092" data-name="Tracé 3092" d="M332.91,324.49c.84.49.75,1.33-.21,1.89l-49.34,28.48a3.59,3.59,0,0,1-3.26.12c-.84-.49-.75-1.33.21-1.88l49.34-28.49a3.65,3.65,0,0,1,3.26-.12Z" fill="#bebebe"/>
      <g id="Groupe_8834" data-name="Groupe 8834" opacity="0.1">
        <path id="Tracé_3093" data-name="Tracé 3093" d="M332.91,324.49c.84.49.75,1.33-.21,1.89l-49.34,28.48a3.59,3.59,0,0,1-3.26.12c-.84-.49-.75-1.33.21-1.88l49.34-28.49a3.65,3.65,0,0,1,3.26-.12Z"/>
      </g>
      <path id="Tracé_3094" data-name="Tracé 3094" d="M341.07,329.19c.85.49.76,1.33-.2,1.88l-31.6,18.23a3.59,3.59,0,0,1-3.26.12c-.84-.48-.75-1.33.21-1.88l31.59-18.23a3.59,3.59,0,0,1,3.26-.12Z" fill="#bebebe"/>
      <g id="Groupe_8835" data-name="Groupe 8835" opacity="0.1">
        <path id="Tracé_3095" data-name="Tracé 3095" d="M341.07,329.19c.85.49.76,1.33-.2,1.88l-31.6,18.23a3.59,3.59,0,0,1-3.26.12c-.84-.48-.75-1.33.21-1.88l31.59-18.23a3.59,3.59,0,0,1,3.26-.12Z"/>
      </g>
    </g>
  </g>
</svg>
